<?xml version="1.0" encoding="UTF-8"?>
<glyph name="afii10091" format="2">
  <advance width="780"/>
  <unicode hex="0449"/>
  <outline>
    <contour>
      <point x="590" y="45" type="line"/>
      <point x="590" y="405" type="line"/>
      <point x="510" y="450" type="line"/>
      <point x="750" y="450" type="line"/>
      <point x="670" y="405" type="line"/>
      <point x="670" y="45" type="line"/>
      <point x="688" y="35" type="line"/>
      <point x="770" y="35" type="line"/>
      <point x="685" y="-190" type="line"/>
      <point x="685" y="0" type="line"/>
      <point x="20" y="0" type="line"/>
      <point x="100" y="45" type="line"/>
      <point x="100" y="405" type="line"/>
      <point x="20" y="450" type="line"/>
      <point x="250" y="450" type="line"/>
      <point x="180" y="405" type="line"/>
      <point x="180" y="45" type="line"/>
      <point x="198" y="35" type="line"/>
      <point x="345" y="35" type="line"/>
      <point x="345" y="405" type="line"/>
      <point x="275" y="450" type="line"/>
      <point x="495" y="450" type="line"/>
      <point x="425" y="405" type="line"/>
      <point x="425" y="35" type="line"/>
      <point x="572" y="35" type="line"/>
    </contour>
  </outline>
  <lib>
    <dict>
      <key>com.fontlab.hintData</key>
      <dict>
        <key>hhints</key>
        <array>
          <dict>
            <key>position</key>
            <integer>-190</integer>
            <key>width</key>
            <integer>21</integer>
          </dict>
          <dict>
            <key>position</key>
            <integer>0</integer>
            <key>width</key>
            <integer>35</integer>
          </dict>
          <dict>
            <key>position</key>
            <integer>430</integer>
            <key>width</key>
            <integer>20</integer>
          </dict>
        </array>
        <key>vhints</key>
        <array>
          <dict>
            <key>position</key>
            <integer>100</integer>
            <key>width</key>
            <integer>80</integer>
          </dict>
          <dict>
            <key>position</key>
            <integer>345</integer>
            <key>width</key>
            <integer>80</integer>
          </dict>
          <dict>
            <key>position</key>
            <integer>590</integer>
            <key>width</key>
            <integer>80</integer>
          </dict>
        </array>
      </dict>
    </dict>
  </lib>
</glyph>
