<?xml version="1.0" encoding="UTF-8"?>
<glyph name="afii10030" format="2">
  <advance width="849"/>
  <unicode hex="041C"/>
  <outline>
    <contour>
      <point x="15" y="0" type="line"/>
      <point x="115" y="55" type="line"/>
      <point x="115" y="595" type="line"/>
      <point x="15" y="650" type="line"/>
      <point x="213" y="650" type="line"/>
      <point x="422" y="158" type="line"/>
      <point x="423" y="158" type="line"/>
      <point x="632" y="650" type="line"/>
      <point x="834" y="650" type="line"/>
      <point x="734" y="595" type="line"/>
      <point x="734" y="55" type="line"/>
      <point x="834" y="0" type="line"/>
      <point x="539" y="0" type="line"/>
      <point x="639" y="55" type="line"/>
      <point x="639" y="560" type="line"/>
      <point x="395" y="-15" type="line"/>
      <point x="160" y="540" type="line"/>
      <point x="160" y="55" type="line"/>
      <point x="260" y="0" type="line"/>
    </contour>
  </outline>
  <lib>
    <dict>
      <key>com.fontlab.hintData</key>
      <dict>
        <key>hhints</key>
        <array>
          <dict>
            <key>position</key>
            <integer>-15</integer>
            <key>width</key>
            <integer>21</integer>
          </dict>
          <dict>
            <key>position</key>
            <integer>0</integer>
            <key>width</key>
            <integer>21</integer>
          </dict>
          <dict>
            <key>position</key>
            <integer>630</integer>
            <key>width</key>
            <integer>20</integer>
          </dict>
        </array>
        <key>vhints</key>
        <array>
          <dict>
            <key>position</key>
            <integer>115</integer>
            <key>width</key>
            <integer>45</integer>
          </dict>
          <dict>
            <key>position</key>
            <integer>639</integer>
            <key>width</key>
            <integer>95</integer>
          </dict>
        </array>
      </dict>
    </dict>
  </lib>
</glyph>
