<?xml version="1.0" encoding="UTF-8"?>
<glyph name="caps_endash" format="2">
  <advance width="670"/>
  <outline>
    <contour>
      <point x="70" y="320" type="line"/>
      <point x="70" y="355" type="line"/>
      <point x="600" y="355" type="line"/>
      <point x="600" y="320" type="line"/>
    </contour>
  </outline>
  <lib>
    <dict>
      <key>com.fontlab.hintData</key>
      <dict>
        <key>hhints</key>
        <array>
          <dict>
            <key>position</key>
            <integer>320</integer>
            <key>width</key>
            <integer>35</integer>
          </dict>
        </array>
      </dict>
    </dict>
  </lib>
</glyph>
