<?xml version="1.0" encoding="UTF-8"?>
<glyph name="D" format="2">
  <advance width="660"/>
  <unicode hex="0044"/>
  <outline>
    <contour>
      <point x="280" y="0" type="curve" smooth="yes"/>
      <point x="15" y="0" type="line"/>
      <point x="115" y="55" type="line"/>
      <point x="115" y="595" type="line"/>
      <point x="15" y="650" type="line"/>
      <point x="280" y="650" type="line" smooth="yes"/>
      <point x="455" y="650"/>
      <point x="625" y="550"/>
      <point x="625" y="325" type="curve" smooth="yes"/>
      <point x="625" y="100"/>
      <point x="455" y="0"/>
    </contour>
    <contour>
      <point x="210" y="595" type="line"/>
      <point x="210" y="55" type="line"/>
      <point x="245" y="35" type="line"/>
      <point x="280" y="35" type="line" smooth="yes"/>
      <point x="400" y="35"/>
      <point x="515" y="115"/>
      <point x="515" y="325" type="curve" smooth="yes"/>
      <point x="515" y="535"/>
      <point x="400" y="615"/>
      <point x="280" y="615" type="curve" smooth="yes"/>
      <point x="245" y="615" type="line"/>
    </contour>
  </outline>
  <lib>
    <dict>
      <key>com.fontlab.hintData</key>
      <dict>
        <key>hhints</key>
        <array>
          <dict>
            <key>position</key>
            <integer>0</integer>
            <key>width</key>
            <integer>35</integer>
          </dict>
          <dict>
            <key>position</key>
            <integer>615</integer>
            <key>width</key>
            <integer>35</integer>
          </dict>
        </array>
        <key>vhints</key>
        <array>
          <dict>
            <key>position</key>
            <integer>115</integer>
            <key>width</key>
            <integer>95</integer>
          </dict>
          <dict>
            <key>position</key>
            <integer>515</integer>
            <key>width</key>
            <integer>110</integer>
          </dict>
        </array>
      </dict>
    </dict>
  </lib>
</glyph>
