<?xml version="1.0" encoding="UTF-8"?>
<glyph name="Ecaron" format="2">
  <advance width="610"/>
  <unicode hex="011A"/>
  <outline>
    <contour>
      <point x="210" y="595" type="line"/>
      <point x="210" y="355" type="line"/>
      <point x="335" y="355" type="line"/>
      <point x="405" y="460" type="line"/>
      <point x="405" y="215" type="line"/>
      <point x="335" y="320" type="line"/>
      <point x="210" y="320" type="line"/>
      <point x="210" y="55" type="line"/>
      <point x="245" y="35" type="line"/>
      <point x="460" y="35" type="line"/>
      <point x="550" y="210" type="line"/>
      <point x="550" y="0" type="line"/>
      <point x="15" y="0" type="line"/>
      <point x="115" y="55" type="line"/>
      <point x="115" y="595" type="line"/>
      <point x="15" y="650" type="line"/>
      <point x="535" y="650" type="line"/>
      <point x="535" y="440" type="line"/>
      <point x="445" y="615" type="line"/>
      <point x="245" y="615" type="line"/>
    </contour>
    <contour>
      <point x="315" y="790" type="line"/>
      <point x="515" y="890" type="line"/>
      <point x="315" y="700" type="line"/>
      <point x="115" y="890" type="line"/>
    </contour>
  </outline>
  <lib>
    <dict>
      <key>com.fontlab.hintData</key>
      <dict>
        <key>hhints</key>
        <array>
          <dict>
            <key>position</key>
            <integer>0</integer>
            <key>width</key>
            <integer>35</integer>
          </dict>
          <dict>
            <key>position</key>
            <integer>320</integer>
            <key>width</key>
            <integer>35</integer>
          </dict>
          <dict>
            <key>position</key>
            <integer>615</integer>
            <key>width</key>
            <integer>35</integer>
          </dict>
          <dict>
            <key>position</key>
            <integer>870</integer>
            <key>width</key>
            <integer>20</integer>
          </dict>
        </array>
        <key>vhints</key>
        <array>
          <dict>
            <key>position</key>
            <integer>115</integer>
            <key>width</key>
            <integer>95</integer>
          </dict>
        </array>
      </dict>
    </dict>
  </lib>
</glyph>
