<?xml version="1.0" encoding="UTF-8"?>
<glyph name="parenright" format="2">
  <advance width="364"/>
  <unicode hex="0029"/>
  <outline>
    <contour>
      <point x="274" y="245" type="curve" smooth="yes"/>
      <point x="274" y="-96"/>
      <point x="3" y="-171"/>
      <point x="-10" y="-175" type="curve"/>
      <point x="-1" y="-171"/>
      <point x="184" y="-96"/>
      <point x="184" y="245" type="curve" smooth="yes"/>
      <point x="184" y="586"/>
      <point x="-1" y="661"/>
      <point x="-10" y="665" type="curve"/>
      <point x="3" y="661"/>
      <point x="274" y="586"/>
    </contour>
  </outline>
  <lib>
    <dict>
      <key>com.fontlab.hintData</key>
      <dict>
        <key>hhints</key>
        <array>
          <dict>
            <key>position</key>
            <integer>-175</integer>
            <key>width</key>
            <integer>21</integer>
          </dict>
          <dict>
            <key>position</key>
            <integer>645</integer>
            <key>width</key>
            <integer>20</integer>
          </dict>
        </array>
        <key>vhints</key>
        <array>
          <dict>
            <key>position</key>
            <integer>184</integer>
            <key>width</key>
            <integer>90</integer>
          </dict>
        </array>
      </dict>
    </dict>
  </lib>
</glyph>
