<?xml version="1.0" encoding="UTF-8" standalone="no"?>
<!-- Created with Inkscape (http://www.inkscape.org/) -->

<svg
   xmlns:dc="http://purl.org/dc/elements/1.1/"
   xmlns:cc="http://creativecommons.org/ns#"
   xmlns:rdf="http://www.w3.org/1999/02/22-rdf-syntax-ns#"
   xmlns:svg="http://www.w3.org/2000/svg"
   xmlns="http://www.w3.org/2000/svg"
   xmlns:sodipodi="http://sodipodi.sourceforge.net/DTD/sodipodi-0.dtd"
   xmlns:inkscape="http://www.inkscape.org/namespaces/inkscape"
   id="svg2"
   version="1.1"
   inkscape:version="0.91 r"
   width="836.09998"
   height="460.5"
   viewBox="0 0 836.09998 460.5"
   sodipodi:docname="Logo Francophones Bruxelles.svg">
  <metadata
     id="metadata8">
    <rdf:RDF>
      <cc:Work
         rdf:about="">
        <dc:format>image/svg+xml</dc:format>
        <dc:type
           rdf:resource="http://purl.org/dc/dcmitype/StillImage" />
        <dc:title />
      </cc:Work>
    </rdf:RDF>
  </metadata>
  <defs
     id="defs6" />
  <sodipodi:namedview
     pagecolor="#ffffff"
     bordercolor="#666666"
     borderopacity="1"
     objecttolerance="10"
     gridtolerance="10"
     guidetolerance="10"
     inkscape:pageopacity="0"
     inkscape:pageshadow="2"
     inkscape:window-width="1352"
     inkscape:window-height="667"
     id="namedview4"
     showgrid="false"
     inkscape:zoom="0.49547028"
     inkscape:cx="492.92871"
     inkscape:cy="228.86683"
     inkscape:window-x="0"
     inkscape:window-y="27"
     inkscape:window-maximized="0"
     inkscape:current-layer="svg2" />
  <g
     id="g3514">
    <path
       id="path3510"
       d="m 469.66787,267.26984 c -1.83363,-0.26785 -3.22434,-1.01175 -4.10481,-2.19565 l -0.63135,-0.84895 0.0878,-32.86645 c 0.0725,-27.09757 0.16044,-33.04016 0.50139,-33.85613 0.57855,-1.38466 1.90605,-1.97379 4.86339,-2.15829 3.46827,-0.21638 4.95237,0.35651 5.91207,2.28214 0.38283,0.76815 0.85821,2.05827 1.05642,2.86695 0.48429,1.97598 1.14015,3.17968 1.73253,3.17968 0.26853,0 1.85133,-1.40157 3.51729,-3.11461 3.48861,-3.58713 5.43663,-4.706 9.55815,-5.48986 3.21663,-0.61177 7.95108,-0.3876 10.87092,0.51471 11.0664,3.41983 16.7643,13.66053 16.26888,29.23976 -0.12288,3.86451 -0.30555,5.38468 -0.93723,7.8 -3.00936,11.5067 -11.78043,18.75457 -22.68165,18.74269 -5.18121,-0.006 -9.48117,-1.44576 -12.9,-4.32039 -0.98886,-0.83144 -1.89042,-1.35428 -2.25,-1.30482 -0.58191,0.08 -0.60453,0.36753 -0.75,9.53252 -0.10935,6.88993 -0.25401,9.63202 -0.53388,10.12189 -0.9687,1.69542 -5.1741,2.51842 -9.57996,1.87481 z"
       style="fill:#3a3a3a" />
    <path
       id="path3508"
       d="m 496.37111,239.07004 c 3.44046,-1.06264 6.02967,-4.11222 7.25673,-8.5469 0.30801,-1.1132 0.56169,-3.53045 0.66489,-6.33528 0.20103,-5.46312 -0.25719,-8.07745 -1.89339,-10.80266 -1.50093,-2.49995 -2.36442,-3.30276 -4.90179,-4.55737 -2.12658,-1.0515 -2.37936,-1.10469 -5.25,-1.10469 -2.72727,0 -3.18807,0.0842 -4.81584,0.88053 -3.31443,1.62138 -5.81625,4.90704 -6.89763,9.05879 -0.60153,2.3094 -0.59199,8.14981 0.0183,11.14833 1.1289,5.54749 4.0965,9.34683 8.1531,10.43814 2.18907,0.5889 5.42439,0.5134 7.66575,-0.17889 z"
       style="fill:#3a3a3a" />
    <path
       id="path3506"
       d="m 258.17497,250.79457 c -6.32522,-1.71583 -10.14312,-5.52337 -10.90042,-10.87085 -0.63855,-4.50901 0.95739,-8.41148 4.41195,-10.78828 3.09385,-2.12862 7.31031,-3.16008 17.64346,-4.31606 9.27184,-1.03726 11.75608,-1.79324 13.29638,-4.04624 0.67761,-0.99114 0.70993,-1.23863 0.57664,-4.41513 -0.12051,-2.872 -0.25965,-3.60725 -0.94952,-5.01728 -1.66599,-3.40516 -4.41339,-4.82269 -9.32175,-4.80957 -3.65391,0.01 -5.54701,0.58557 -7.45931,2.26884 -1.75068,1.54101 -2.75933,3.66072 -3.33614,7.01102 -0.54056,3.13972 -1.21504,4.07709 -3.36718,4.67965 -1.5461,0.43289 -5.38657,0.53654 -7.05353,0.19038 -1.30548,-0.2711 -2.76475,-1.41072 -3.41395,-2.66615 -1.22921,-2.37703 -0.65805,-8.22566 1.17925,-12.07547 3.21477,-6.7361 9.61031,-10.3693 19.92586,-11.31956 4.31291,-0.3973 9.61545,-0.0222 13.4076,0.94836 8.83072,2.26021 13.46038,8.1488 14.59838,18.56804 0.46174,4.22755 0.10133,32.82926 -0.42729,33.90989 -0.70951,1.45041 -1.79611,1.93227 -4.66676,2.06952 -4.61667,0.22072 -5.9178,-0.67273 -6.77205,-4.65018 -0.66283,-3.08612 -0.88913,-3.78378 -1.26837,-3.91019 -0.1738,-0.0579 -1.71786,1.30113 -3.43125,3.02014 -3.42537,3.4366 -5.55169,4.74453 -9.61896,5.91679 -3.27715,0.94454 -10.10281,1.10263 -13.05304,0.30233 z"
       style="fill:#3a3a3a" />
    <path
       id="path3504"
       d="m 273.53171,240.5259 c 2.33688,-0.77823 4.2536,-2.01675 5.98396,-3.86664 2.38339,-2.54805 3.9932,-6.84051 3.21003,-8.55939 -0.41453,-0.90979 -0.89831,-0.91173 -2.67896,-0.0107 -2.41989,1.22445 -6.48945,2.52809 -9.90289,3.17228 -1.8006,0.33981 -3.96137,0.82202 -4.80169,1.07157 -5.28344,1.56901 -4.50232,7.65245 1.13955,8.87494 1.54862,0.33555 4.9958,0.002 7.05,-0.68202 z"
       style="fill:#3a3a3a" />
    <path
       id="path3502"
       d="m 378.53171,251.04405 c -12.61407,-1.15197 -21.27441,-9.1405 -23.67432,-21.83788 -2.18265,-11.54782 0.96561,-22.46108 8.2032,-28.43593 5.13606,-4.24 10.9449,-6.0971 19.07112,-6.0971 8.41374,0 14.22135,1.91953 18.75921,6.20032 3.34956,3.15981 5.17164,7.38612 5.21652,12.09968 0.0207,2.1613 -0.0803,2.71824 -0.66204,3.65371 -1.74321,2.80337 -7.8318,3.54899 -10.51866,1.28814 -0.57966,-0.48775 -1.26129,-1.69411 -1.98729,-3.51711 -2.32995,-5.85069 -3.85587,-7.15472 -9.06585,-7.74762 -7.98315,-0.90849 -13.19202,2.61432 -14.97741,10.12934 -0.65487,2.75644 -0.65997,8.86201 -0.01,11.56855 1.83135,7.62198 7.71012,11.89573 15.40416,11.19852 4.52331,-0.4099 7.20567,-1.74311 10.02219,-4.98134 1.87398,-2.15456 3.00852,-2.90564 4.93191,-3.26496 4.13358,-0.77224 7.19286,2.13097 6.58746,6.25144 -0.80682,5.49141 -6.56226,10.56343 -14.18754,12.50289 -2.26671,0.57652 -9.42567,1.46267 -10.263,1.27038 -0.0825,-0.019 -1.365,-0.14541 -2.85,-0.28103 z"
       style="fill:#3a3a3a" />
    <path
       id="path3500"
       d="m 431.78171,251.06125 c -17.79315,-1.62986 -27.29991,-15.87185 -23.82246,-35.6881 1.4868,-8.47246 5.36247,-14.1973 11.89584,-17.57165 3.92799,-2.02873 7.46751,-2.85488 13.06626,-3.04979 7.19421,-0.25044 12.24354,0.6925 17.01036,3.17662 2.52066,1.31359 5.98671,4.5095 7.65843,7.06154 4.17486,6.37328 5.66085,18.00662 3.37647,26.43328 -2.32713,8.58431 -8.23455,15.2735 -15.96726,18.08033 -3.90648,1.41797 -8.646,1.97656 -13.21764,1.55779 z"
       style="fill:#3a3a3a" />
    <path
       id="path3498"
       d="m 440.25236,238.09928 c 3.67182,-1.68363 6.00876,-4.3805 7.30308,-8.4279 0.65802,-2.05772 0.78234,-2.99856 0.77934,-5.89824 -0.008,-7.14459 -1.80321,-11.52356 -5.77989,-14.09381 -3.0522,-1.97274 -7.91856,-2.6507 -11.83515,-1.6488 -6.09243,1.55849 -9.80388,8.36575 -9.31923,17.09261 0.34992,6.30114 2.3943,10.24749 6.42024,12.3933 2.47527,1.3193 3.62145,1.54385 7.41096,1.45188 2.82354,-0.0685 3.54843,-0.19399 5.02065,-0.86904 z"
       style="fill:#3a3a3a" />
    <path
       id="path3496"
       d="m 601.13171,251.04406 c -3.88653,-0.35493 -7.05567,-1.2568 -10.65,-3.03075 -2.74029,-1.35246 -3.50118,-1.9084 -5.85,-4.27441 -3.03186,-3.05403 -4.29735,-5.00472 -5.74209,-8.85103 -1.35225,-3.60007 -1.90815,-7.0926 -1.90671,-11.97902 0.004,-14.40174 5.56167,-23.35349 16.65591,-26.82895 3.75066,-1.17496 6.79305,-1.50333 12.24351,-1.32145 5.92056,0.19758 8.6919,0.82027 13.01559,2.92452 4.90308,2.3862 8.49443,6.35892 10.4534,11.56342 1.70844,4.53889 2.05437,6.71818 2.06787,13.02676 0.0153,7.07839 -0.46869,9.44971 -2.96865,14.55 -4.14395,8.45418 -11.2964,13.29756 -21.03554,14.24446 -1.64082,0.15953 -3.11829,0.27498 -3.28329,0.25654 -0.165,-0.0184 -1.515,-0.14447 -3,-0.28009 z"
       style="fill:#3a3a3a" />
    <path
       id="path3494"
       d="m 608.84129,238.45308 c 6.17301,-2.07954 9.63327,-8.21915 9.14544,-16.22691 -0.62055,-10.18546 -5.66526,-15.09064 -14.98809,-14.57349 -2.15325,0.11944 -2.97699,0.31536 -4.52013,1.07505 -4.79703,2.36156 -7.3959,7.55116 -7.45941,14.89542 -0.0439,5.07842 0.7965,8.14201 3.04503,11.1 1.27368,1.67555 3.74118,3.29933 5.9268,3.90023 2.33205,0.64116 6.69054,0.55729 8.85036,-0.1703 z"
       style="fill:#3a3a3a" />
    <path
       id="path3492"
       d="m 711.04033,251.05217 c -7.02528,-0.60774 -13.29582,-3.77117 -17.36712,-8.76155 -2.06709,-2.53376 -4.335,-7.20557 -5.2755,-10.86747 -1.03572,-4.03266 -1.31946,-11.25587 -0.6033,-15.35849 1.04028,-5.9593 3.35886,-10.54787 7.27758,-14.40274 2.0706,-2.03686 3.03288,-2.72293 5.58087,-3.97896 4.41756,-2.17766 6.88872,-2.75299 12.5961,-2.93263 5.41761,-0.17052 8.44269,0.17648 12.2829,1.40892 3.72846,1.19658 6.35781,2.76358 8.83596,5.26592 3.79098,3.82796 5.54289,8.55016 5.61987,15.14798 0.0402,3.44767 -0.0168,3.87093 -0.70611,5.25 -1.33497,2.67036 -0.40251,2.549 -19.58853,2.54954 l -16.73862,6e-4 -0.77694,0.77693 c -0.73227,0.73228 -0.7659,0.8957 -0.58497,2.84248 0.37776,4.06467 2.22912,7.27926 5.35638,9.30051 3.10887,2.00936 6.9072,2.74254 10.95099,2.11384 3.9222,-0.60979 5.29299,-1.3203 8.46939,-4.38976 3.37743,-3.26372 4.25478,-3.77001 6.5904,-3.80313 2.20737,-0.0313 3.87816,0.84387 4.82403,2.52684 0.57336,1.02014 0.65199,1.51354 0.5322,3.33963 -0.17148,2.61475 -1.05939,4.50594 -3.23112,6.88216 -4.71159,5.15523 -14.16915,7.9438 -24.04446,7.08951 z"
       style="fill:#3a3a3a" />
    <path
       id="path3490"
       d="m 726.73309,216.37665 c 0.84378,-0.76362 0.73536,-3.21091 -0.22788,-5.14389 -1.9524,-3.918 -6.91128,-6.07904 -13.00548,-5.66771 -5.24553,0.35404 -9.16788,2.65088 -10.85784,6.3581 -0.6219,1.36427 -0.73908,4.0511 -0.20019,4.59 0.26769,0.26768 3.35808,0.36 12.05139,0.36 10.45794,0 11.74923,-0.0524 12.24,-0.4965 z"
       style="fill:#3a3a3a" />
    <path
       id="path3488"
       d="m 763.4317,251.05328 c -5.96091,-0.81352 -10.69167,-2.79802 -13.91202,-5.83593 -2.81397,-2.65456 -4.00689,-4.93052 -4.15995,-7.9366 -0.19188,-3.76897 1.14228,-5.43495 4.52493,-5.65034 2.5215,-0.16055 3.71832,0.46849 7.227,3.79843 3.89124,3.69301 6.21042,4.70114 11.57004,5.02939 4.7541,0.29115 8.54616,-0.71121 9.98589,-2.63959 0.32886,-0.44044 0.66105,-1.45823 0.73827,-2.26177 0.12018,-1.25076 0.0282,-1.59415 -0.6384,-2.38651 -1.46253,-1.73811 -3.07455,-2.25278 -12.48576,-3.98636 -9.27693,-1.70884 -13.38237,-3.29871 -16.53726,-6.40423 -4.15494,-4.08992 -5.10723,-11.47896 -2.24979,-17.45662 3.00027,-6.27638 10.20807,-10.08169 19.98705,-10.552 11.53296,-0.55467 20.4564,3.02036 23.48163,9.40748 0.85959,1.81482 0.96837,2.33685 0.96837,4.64649 0,2.14842 -0.10731,2.74979 -0.6156,3.45 -0.98886,1.36223 -3.1428,2.27197 -5.47596,2.31285 -2.56581,0.0449 -4.0284,-0.67513 -5.45844,-2.68735 -0.5775,-0.81261 -1.81323,-2.24588 -2.74605,-3.18504 -1.44054,-1.45034 -2.0202,-1.80603 -3.84786,-2.36116 -2.84214,-0.86328 -8.36778,-0.74769 -10.50609,0.21977 -2.60742,1.17973 -3.86979,3.31419 -3.44547,5.82576 0.59784,3.53866 3.29316,4.87043 14.21142,7.02192 8.90148,1.75407 13.34682,3.42762 16.31832,6.1434 2.32044,2.12075 3.2709,4.35748 3.45228,8.12429 0.42006,8.72357 -5.17854,14.5412 -16.1598,16.79202 -3.59604,0.73708 -10.87248,1.02948 -14.22675,0.5717 z"
       style="fill:#3a3a3a" />
    <path
       id="path3486"
       d="m 216.83171,249.77389 c -2.00372,-0.66121 -2.57637,-1.09491 -3.16891,-2.39994 -0.53119,-1.16992 -0.5664,-2.11404 -0.54453,-14.6008 0.0128,-7.3425 0.11114,-18.09899 0.21841,-23.9033 0.18628,-10.07953 0.22323,-10.59132 0.82313,-11.4 0.8377,-1.12925 2.19654,-1.55937 4.99083,-1.57977 2.7915,-0.0204 4.40103,0.54335 5.14443,1.80182 0.2928,0.49567 0.7939,2.20133 1.11355,3.79037 0.60714,3.01811 0.94872,3.75815 1.61642,3.50193 0.2197,-0.0843 1.23018,-1.275 2.24552,-2.64598 1.98671,-2.68262 3.29964,-3.88705 5.41721,-4.96955 3.22735,-1.64983 7.83156,-2.02026 10.19851,-0.82052 2.05903,1.04365 2.54681,2.15322 2.5388,5.775 -0.006,2.62653 -0.0992,3.16615 -0.75,4.33466 -1.09264,1.96177 -2.1396,2.44278 -5.93155,2.72513 -4.06304,0.30254 -6.13376,1.05179 -8.24854,2.98458 -1.79346,1.63912 -2.95349,3.57174 -3.70834,6.17809 -0.43881,1.51517 -0.5399,3.75598 -0.68487,15.18117 -0.16405,12.92937 -0.19198,13.43357 -0.78942,14.25 -1.08175,1.47824 -2.59037,1.99592 -6.11947,2.09993 -2.05239,0.0605 -3.58208,-0.0457 -4.36118,-0.30282 z"
       style="fill:#3a3a3a" />
    <path
       id="path3484"
       d="m 305.6879,249.88093 c -1.67955,-0.30644 -2.69088,-0.90027 -3.41481,-2.00516 -0.71742,-1.09492 -0.76692,-4.09125 -0.47229,-28.60262 0.27759,-23.09475 0.15774,-21.98545 2.47545,-22.91282 1.50537,-0.60233 5.34609,-0.64745 6.69009,-0.0786 1.31538,0.55675 1.88211,1.27378 2.40387,3.04141 0.24351,0.825 0.6702,2.2844 0.94818,3.24311 0.67533,2.32922 1.31403,2.24952 3.15012,-0.39311 2.72349,-3.91979 5.36088,-5.77408 9.84312,-6.92044 2.81085,-0.7189 8.05089,-0.77557 10.84362,-0.11728 6.59778,1.55519 11.10276,6.30577 12.93957,13.64502 0.57408,2.29389 0.66501,3.87836 0.92919,16.1927 0.16104,7.5075 0.25116,15.63262 0.20025,18.05583 -0.092,4.37956 -0.0977,4.41114 -0.94656,5.29669 -1.15611,1.206 -2.75337,1.54748 -7.23846,1.54748 -4.21989,0 -5.47158,-0.33201 -6.35919,-1.68681 -0.51618,-0.78785 -0.54246,-1.71738 -0.44829,-15.85006 0.0843,-12.65213 0.0273,-15.35783 -0.36237,-17.205 -1.20267,-5.70054 -4.24491,-8.12818 -9.76218,-7.79002 -4.94376,0.30301 -8.10084,3.21648 -9.84138,9.08189 -0.47922,1.615 -0.5349,3.27995 -0.54174,16.2 -0.008,15.99769 0.0204,15.75364 -1.97532,16.72962 -1.27602,0.62403 -6.77772,0.94473 -9.06087,0.52816 z"
       style="fill:#3a3a3a" />
    <path
       id="path3482"
       d="m 528.80969,249.89453 c -2.07093,-0.33062 -3.5037,-1.06075 -4.11615,-2.09756 -0.47448,-0.80322 -0.51183,-3.39549 -0.51183,-35.52562 0,-23.8213 0.10005,-34.92327 0.31998,-35.50372 0.84123,-2.22027 2.44491,-2.86334 7.09269,-2.84417 2.40546,0.01 3.36282,0.14343 4.43739,0.61877 2.26344,1.00122 2.24994,0.91305 2.24994,14.6967 0,6.59181 0.0819,12.19864 0.1821,12.45964 0.3456,0.90061 1.12854,0.46691 3.18384,-1.76363 2.27235,-2.46608 4.32036,-3.67272 7.73406,-4.55675 2.6745,-0.6926 8.48649,-0.69681 11.06625,-0.008 5.93415,1.58444 10.07589,5.44897 12.00213,11.19886 1.34766,4.02276 1.47669,5.94544 1.57722,23.50407 0.0922,16.10279 0.076,16.68225 -0.49359,17.63137 -0.33351,0.55577 -1.17723,1.27134 -1.94547,1.65 -1.17468,0.57899 -1.83915,0.66863 -4.95654,0.66863 -4.00974,0 -5.39946,-0.43219 -6.58065,-2.04647 -0.60204,-0.82282 -0.62388,-1.28778 -0.78177,-16.65 -0.17982,-17.49397 -0.17061,-17.40862 -2.193,-20.35061 -0.70785,-1.0297 -1.50135,-1.71115 -2.72406,-2.33942 -1.51368,-0.77776 -2.0439,-0.88752 -4.32291,-0.89478 -2.18127,-0.007 -2.86206,0.11629 -4.24761,0.76895 -2.93718,1.38356 -5.01525,4.09077 -6.21879,8.10161 -0.40707,1.35653 -0.50226,3.8801 -0.60324,15.99116 -0.13518,16.21135 -0.063,15.69858 -2.3508,16.71056 -1.52028,0.67249 -5.40951,0.96193 -7.79919,0.58043 z"
       style="fill:#3a3a3a" />
    <path
       id="path3480"
       d="m 638.35087,249.87553 c -1.77378,-0.32187 -2.82708,-1.03688 -3.57069,-2.42381 -0.52635,-0.98171 -0.54342,-2.09941 -0.37434,-24.48202 0.13248,-17.53925 0.27156,-23.73526 0.55152,-24.57134 0.61113,-1.82514 1.59174,-2.32866 4.80918,-2.46938 4.50957,-0.19724 5.71848,0.67172 6.65346,4.78258 1.01652,4.46929 1.47867,4.60768 3.89091,1.16516 2.65779,-3.79297 5.72043,-5.85451 10.07079,-6.7789 2.56818,-0.54571 8.0571,-0.53212 10.42341,0.0258 6.23451,1.46997 10.80606,6.07619 12.65835,12.75431 0.96408,3.47589 1.18608,7.63725 1.28064,24.0059 0.0975,16.8721 0.17763,16.1575 -1.94022,17.30216 -1.21323,0.65573 -8.67891,0.93724 -10.66596,0.40218 -2.41038,-0.64905 -2.30622,0.16415 -2.30622,-18.00335 0,-15.84568 -0.009,-16.08836 -0.67179,-18.03732 -1.38819,-4.08236 -3.70062,-5.90936 -7.8384,-6.19297 -4.66437,-0.31971 -7.94115,1.52142 -10.02276,5.63152 -1.91037,3.77199 -2.00598,4.73067 -2.01183,20.17162 -0.006,15.39688 -0.015,15.47407 -1.95273,16.28366 -1.29786,0.54228 -6.89655,0.81288 -8.98332,0.43419 z"
       style="fill:#3a3a3a" />
    <path
       id="path3478"
       d="m 161.38686,249.45187 c -1.51582,-0.55842 -2.24263,-1.25455 -2.57801,-2.46918 -0.16935,-0.61335 -0.15963,-5.44196 0.0251,-12.48003 0.17241,-6.56757 0.21813,-20.47049 0.10685,-32.49164 -0.19398,-20.95537 -0.19283,-21.01417 0.42789,-21.80328 1.19116,-1.51432 1.04099,-1.5075 25.29018,-1.14799 25.15601,0.37295 23.65351,0.22281 24.4309,2.44141 0.46031,1.31371 0.49476,6.77467 0.0511,8.10213 -0.46809,1.40057 -1.67865,2.62747 -2.80004,2.83785 -0.51467,0.0966 -7.30797,0.0287 -15.09622,-0.15081 -15.63381,-0.36032 -15.8055,-0.34586 -16.5253,1.3919 -0.26506,0.63992 -0.34122,3.12579 -0.27668,9.03057 l 0.0891,8.1476 0.83142,0.83133 0.83141,0.83133 14.46859,0.15 c 13.90172,0.14412 14.50972,0.1741 15.51858,0.76513 1.5542,0.91052 1.95018,1.94372 1.94886,5.08487 -9e-4,2.03803 -0.13446,2.94484 -0.54493,3.69863 -1.00681,1.84902 -1.02958,1.85145 -17.31404,1.85145 -9.57961,0 -14.93224,0.10858 -15.30963,0.31055 -0.55681,0.298 -0.58096,0.74991 -0.59721,11.175 -0.0188,12.07122 -0.0823,12.55378 -1.78307,13.54964 -0.91242,0.53425 -1.63962,0.62467 -5.55,0.6901 -3.28236,0.0549 -4.80978,-0.0388 -5.64486,-0.34648 z"
       style="fill:#3a3a3a" />
    <path
       id="path3476"
       d="m 814.7317,218.86899 c -3.21366,-1.0634 -4.76364,-2.37306 -11.43273,-9.66002 -1.81206,-1.97994 -3.36966,-3.36096 -4.62324,-4.09911 -1.72182,-1.01389 -1.98921,-1.31324 -2.99715,-3.35529 l -1.10667,-2.2421 1.67991,-0.61373 c 4.90755,-1.79293 9.51882,-2.56279 15.17988,-2.53429 3.57627,0.018 4.9746,0.15144 6.81207,0.65005 4.91517,1.33377 7.93146,3.49986 9.60375,6.8968 0.90501,1.83834 0.98382,2.22889 0.97953,4.85545 -0.005,3.34283 -0.54666,4.75308 -2.77533,7.23191 -2.07822,2.31147 -3.81,3.06838 -7.27002,3.17752 -1.7964,0.0567 -3.29361,-0.0569 -4.05,-0.30719 z"
       style="fill:#3a3a3a" />
    <path
       id="path3474"
       d="m 789.85081,191.91889 c 2.12367,-6.01915 8.19021,-14.16748 13.59543,-18.26085 2.71911,-2.05919 6.32436,-3.79506 9.13182,-4.39684 4.02453,-0.86265 7.49346,0.0688 10.40739,2.7944 0.87021,0.81398 1.7487,2.04982 2.27271,3.19717 0.7332,1.60539 0.85557,2.25271 0.86388,4.57029 0.008,2.34896 -0.0975,2.91817 -0.81444,4.37804 -2.02206,4.11743 -6.22518,6.57399 -11.24145,6.57019 -1.28394,-9e-4 -3.68445,-0.21066 -5.33445,-0.46598 -5.13588,-0.79472 -7.65789,-0.97482 -9.86754,-0.70467 -2.78811,0.34087 -5.81019,1.31731 -7.81674,2.52561 l -1.61232,0.97088 0.41571,-1.17824 z"
       style="fill:#3a3a3a" />
    <path
       id="path3472"
       d="m 783.03604,189.37884 c -2.09322,-3.16815 -4.04217,-7.81505 -5.19972,-12.39761 -3.06402,-12.13008 -0.75606,-21.75948 6.01173,-25.08241 2.45541,-1.20559 5.79474,-1.37366 8.33676,-0.41959 2.60985,0.97952 4.647,2.78338 5.89008,5.21551 0.97374,1.9052 1.04178,2.22364 1.02246,4.78468 -0.0359,4.75825 -1.21563,6.92356 -6.945,12.74724 -2.05419,2.08802 -4.10727,4.3364 -4.56243,4.9964 -1.96245,2.84578 -3.24474,6.21813 -3.5583,9.35791 l -0.19992,2.00215 -0.79566,-1.20428 z"
       style="fill:#3a3a3a" />
    <path
       id="path3470"
       d="m 174.84949,338.35565 c -10.37877,-0.85482 -15.47633,-3.02817 -16.64291,-7.09581 -0.14232,-0.49626 -0.22975,-14.06538 -0.19428,-30.15361 l 0.0645,-29.25133 0.81904,-1.39759 c 1.90081,-3.24349 6.00535,-4.49896 16.23589,-4.96612 6.49626,-0.29664 14.96617,0.0167 19.75892,0.73097 16.13249,2.40423 23.96125,9.4884 23.19204,20.98623 -0.45165,6.75103 -3.3968,11.39899 -9.29925,14.67585 -2.78775,1.54768 -3.1132,2.08288 -1.69959,2.79505 0.41133,0.20723 2.03829,0.97802 3.61546,1.71287 5.90402,2.75084 8.37792,6.34955 8.37365,12.18098 -0.008,10.63821 -7.07082,17.13621 -21.0446,19.36104 -3.67055,0.5844 -18.03024,0.84552 -23.17886,0.42147 z"
       style="fill:#3a3a3a" />
    <path
       id="path3468"
       d="m 193.58172,325.91846 c 3.02157,-0.6639 5.75715,-2.00457 6.89343,-3.37839 1.57441,-1.90356 2.21042,-5.0712 1.46514,-7.29717 -1.55142,-4.63368 -7.33992,-6.58248 -19.45857,-6.55107 -6.40892,0.0165 -7.51569,0.22158 -8.52191,1.57806 -0.58914,0.79422 -0.62809,1.22535 -0.62809,6.95055 0,6.0966 9e-4,6.10476 0.75,6.90675 1.06291,1.13796 2.2094,1.6641 4.63495,2.12706 2.84953,0.54387 11.7796,0.34215 14.86505,-0.33579 z"
       style="fill:#3a3a3a" />
    <path
       id="path3466"
       d="m 188.33172,299.96374 c 8.86101,-0.99923 13.07632,-4.32028 13.09985,-10.32079 0.0155,-3.95923 -1.92114,-6.79365 -5.85183,-8.56445 -3.09555,-1.39457 -5.83566,-1.87452 -11.60406,-2.03254 -6.14957,-0.16847 -8.25267,0.14149 -9.69381,1.42871 l -0.95015,0.84869 0,8.61714 0,8.61715 0.75756,0.56597 c 1.32945,0.99323 8.91621,1.44075 14.24244,0.84012 z"
       style="fill:#3a3a3a" />
    <path
       id="path3464"
       d="m 273.01621,338.20727 c -6.68932,-1.62171 -10.86056,-6.9477 -12.08226,-15.42708 -0.29913,-2.07615 -0.43769,-7.46307 -0.50694,-19.70866 -0.0946,-16.73561 -0.091,-16.85744 0.53606,-17.7 1.31867,-1.77196 2.24559,-2.04839 6.86864,-2.04839 4.61498,0 5.63729,0.28655 6.67218,1.87019 0.48615,0.74392 0.52782,2.00478 0.52782,15.96876 0,13.79413 0.0496,15.33685 0.55014,17.11105 1.49499,5.29905 4.39637,7.8 9.04886,7.8 5.09144,0 8.47329,-2.9319 10.23001,-8.8689 0.4633,-1.56576 0.53967,-3.52206 0.63165,-16.1811 0.0703,-9.67313 0.2147,-14.676 0.43993,-15.24081 0.19465,-0.48811 0.85213,-1.11733 1.56736,-1.5 1.10641,-0.59197 1.67566,-0.65919 5.58205,-0.65919 4.99056,0 6.01962,0.34255 6.9978,2.32938 0.52284,1.06194 0.53652,2.18332 0.3,24.59166 -0.23961,22.70163 -0.26766,23.51274 -0.8478,24.49971 -0.81459,1.38576 -2.47272,2.18268 -4.89879,2.3544 -3.22713,0.22842 -5.49531,-0.67998 -6.48723,-2.59812 -0.23321,-0.45099 -0.65168,-1.9578 -0.92994,-3.34851 -0.80761,-4.03635 -1.3155,-4.22628 -3.00847,-1.12512 -2.31784,4.24581 -5.62828,6.84156 -10.0565,7.88538 -2.42172,0.57084 -8.77166,0.56817 -11.13457,-0.005 z"
       style="fill:#3a3a3a" />
    <path
       id="path3462"
       d="m 385.88171,338.47331 c -9.72576,-1.53177 -15.96522,-6.0411 -19.80672,-14.31453 -3.01773,-6.49926 -3.76293,-16.35053 -1.78416,-23.58564 1.95261,-7.13947 6.47136,-12.66373 12.80574,-15.65528 4.52868,-2.13876 6.27705,-2.45891 13.43514,-2.46018 5.84352,-9e-4 6.5082,0.0553 9.1734,0.7768 5.84109,1.58137 10.15926,4.48255 12.80988,8.60638 2.31066,3.59488 3.6117,9.2007 3.26829,14.08209 -0.19689,2.79864 -0.80823,4.33716 -2.09832,5.28084 -0.82878,0.60624 -1.20984,0.62115 -17.98695,0.70392 -18.94128,0.0935 -18.00639,-0.009 -18.38466,2.00781 -0.0991,0.528 -0.0342,1.75821 0.14421,2.73381 1.23141,6.73548 7.34748,11.09619 14.72415,10.49826 4.83654,-0.39204 6.89238,-1.3551 10.31502,-4.8321 1.37292,-1.39473 2.98437,-2.73984 3.58098,-2.98911 1.69881,-0.70983 4.70229,-0.59676 5.91843,0.22278 2.45553,1.6548 2.92353,4.85418 1.23714,8.45787 -2.4408,5.21586 -8.65314,8.98731 -16.85157,10.23042 -2.58993,0.39273 -8.64105,0.52863 -10.5,0.23586 z"
       style="fill:#3a3a3a" />
    <path
       id="path3460"
       d="m 402.71975,303.8351 c 0.54114,-0.54114 0.61338,-0.87705 0.47562,-2.21172 -0.21639,-2.09672 -1.0377,-3.61648 -2.89161,-5.35059 -2.43924,-2.28161 -5.17905,-3.19055 -9.63402,-3.19609 -4.75446,-0.006 -7.6704,1.03967 -10.33752,3.70681 -1.65975,1.65974 -2.55051,3.6231 -2.55051,5.62164 0,2.13571 -0.41328,2.06799 12.62142,2.06799 11.5107,0 11.68776,-0.009 12.31662,-0.63804 z"
       style="fill:#3a3a3a" />
    <path
       id="path3458"
       d="m 427.12778,338.1335 c -3.6003,-1.24494 -5.74677,-3.24171 -7.11045,-6.61461 l -0.68562,-1.69575 0,-32.60295 0,-32.60296 0.63135,-0.84704 c 1.23063,-1.65104 2.33382,-2.03675 6.15645,-2.15247 2.99217,-0.0906 3.68187,-0.0197 4.8537,0.49863 1.57569,0.697 2.26569,1.77763 2.48892,3.89792 0.0816,0.77488 0.03,14.43637 -0.1146,30.35887 -0.14463,15.9225 -0.15354,29.34552 -0.0198,29.82891 0.339,1.22574 0.67746,1.36128 3.41229,1.3665 3.53613,0.007 4.64958,1.10451 4.63515,4.56996 -0.0126,3.03477 -1.64658,5.21142 -4.56207,6.07722 -2.18484,0.64884 -7.70667,0.60195 -9.68526,-0.0822 z"
       style="fill:#3a3a3a" />
    <path
       id="path3456"
       d="m 452.1605,338.27969 c -4.36914,-1.23147 -7.32411,-4.76571 -8.07384,-9.65655 -0.21774,-1.4205 -0.2949,-12.0498 -0.23844,-32.85 0.0934,-34.40787 -0.0759,-31.89918 2.25123,-33.34604 1.04403,-0.64911 1.45197,-0.70396 5.23527,-0.70396 4.60035,0 5.26113,0.23655 6.34488,2.27132 0.52407,0.98398 0.53907,2.35532 0.34545,31.56125 -0.18474,27.86498 -0.15993,30.59744 0.28404,31.27499 0.45411,0.69309 0.65517,0.74244 3.02481,0.74244 2.38068,0 2.5992,0.0544 3.51807,0.8754 0.93978,0.83967 0.98325,0.97731 1.06551,3.375 0.11076,3.22728 -0.52662,4.48125 -2.94261,5.78907 -1.54875,0.83835 -1.86723,0.89418 -5.54316,0.97152 -2.51511,0.0529 -4.3869,-0.0552 -5.27121,-0.30444 z"
       style="fill:#3a3a3a" />
    <path
       id="path3454"
       d="m 486.98171,338.47331 c -6.28857,-0.99045 -10.63044,-2.98497 -14.49183,-6.65712 -5.95098,-5.65938 -9.06807,-15.61461 -8.04591,-25.69681 1.21779,-12.01183 7.6551,-20.0204 18.48774,-23.00037 2.11899,-0.58291 3.13767,-0.66034 8.7,-0.66133 5.8656,-9e-4 6.50115,0.0533 9.21714,0.7879 6.50916,1.76057 11.28072,5.34201 13.72083,10.29862 1.60077,3.25159 2.18781,6.06428 2.21838,10.62894 0.0243,3.64356 -0.0402,4.1775 -0.64347,5.32062 -1.30005,2.46324 -0.13977,2.31876 -19.38633,2.41395 -18.89724,0.0935 -17.96667,-0.008 -18.34491,2.00781 -0.0991,0.528 -0.0342,1.75821 0.14421,2.73381 1.23141,6.73548 7.34748,11.09619 14.72415,10.49826 4.83396,-0.39183 6.84798,-1.33521 10.28244,-4.81638 2.86422,-2.90316 3.92547,-3.45807 6.61356,-3.45807 3.32175,0 5.1165,1.8378 5.1165,5.23926 0,5.26383 -5.41401,10.75545 -12.8625,13.04688 -3.12027,0.95991 -7.36662,1.51524 -11.25,1.47123 -1.8975,-0.0216 -3.7875,-0.0922 -4.2,-0.1572 z"
       style="fill:#3a3a3a" />
    <path
       id="path3452"
       d="m 503.81975,303.8351 c 0.54114,-0.54114 0.61338,-0.87705 0.47562,-2.21172 -0.21639,-2.09672 -1.0377,-3.61648 -2.89161,-5.35059 -2.43924,-2.28161 -5.17905,-3.19055 -9.63402,-3.19609 -4.75446,-0.006 -7.6704,1.03967 -10.33752,3.70681 -1.65975,1.65974 -2.55051,3.6231 -2.55051,5.62164 0,2.13571 -0.41328,2.06799 12.62142,2.06799 11.5107,0 11.68776,-0.009 12.31662,-0.63804 z"
       style="fill:#3a3a3a" />
    <path
       id="path3450"
       d="m 536.06372,338.19164 c -7.15662,-1.29249 -12.72885,-4.87962 -14.95617,-9.62802 -0.80538,-1.71702 -0.95442,-2.37954 -0.94017,-4.17939 0.0285,-3.582 1.54302,-5.20965 4.84896,-5.21061 2.28945,0 3.43644,0.60603 6.17703,3.26733 4.59381,4.46091 7.28337,5.56887 13.53834,5.57706 3.03852,0.004 4.25397,-0.11817 5.50239,-0.55308 3.10032,-1.08003 4.59921,-3.24327 3.92901,-5.67054 -0.67209,-2.43405 -3.24303,-3.42312 -13.4814,-5.1864 -5.89482,-1.01526 -9.0915,-1.94166 -12.13521,-3.51681 -3.09336,-1.60089 -5.28765,-3.75951 -6.54219,-6.43589 -0.87966,-1.87662 -0.96168,-2.32152 -1.07169,-5.81308 -0.13029,-4.13615 0.18948,-5.83915 1.59162,-8.47621 3.96093,-7.44946 14.57196,-11.28421 27.00747,-9.7603 8.17155,1.00139 13.73514,4.06984 16.10406,8.88179 0.80643,1.63805 0.98415,2.38416 1.08333,4.5476 0.10686,2.33095 0.0487,2.69075 -0.58539,3.62183 -1.21098,1.77817 -2.40711,2.26622 -5.55399,2.26622 -3.13881,0 -3.7302,-0.28119 -5.42181,-2.57787 -2.09001,-2.83753 -3.43182,-4.15486 -4.97634,-4.88555 -4.51779,-2.13726 -11.66463,-1.5901 -14.20722,1.08769 -1.086,1.14376 -1.37622,1.95254 -1.34043,3.73545 0.0783,3.90178 2.73858,5.43436 12.94779,7.45918 7.43112,1.47384 10.55328,2.3586 13.68366,3.87768 3.25506,1.57959 5.23332,3.37914 6.36201,5.78733 0.74319,1.58565 0.80433,2.01255 0.80433,5.61609 0,3.86952 -0.008,3.91758 -1.08804,6.15 -1.36815,2.8293 -2.73513,4.4046 -5.29545,6.10242 -3.2067,2.12646 -6.81792,3.39621 -11.61651,4.0845 -3.04662,0.43698 -11.56899,0.33708 -14.36799,-0.16842 z"
       style="fill:#3a3a3a" />
    <path
       id="path3448"
       d="m 227.21031,337.45145 c -2.19857,-0.3888 -3.46396,-1.22964 -4.04833,-2.69013 -0.41229,-1.03044 -0.47609,-2.781 -0.45075,-12.36924 0.0162,-6.14292 0.11748,-16.86289 0.225,-23.82216 0.18868,-12.21301 0.21734,-12.68268 0.82358,-13.5 0.83767,-1.12932 2.19646,-1.55944 4.99083,-1.57985 2.77897,-0.0203 4.40164,0.54438 5.1358,1.78721 0.28806,0.48764 0.7289,2.06201 0.97965,3.4986 0.25075,1.43659 0.5866,2.85617 0.74632,3.15462 0.55212,1.03164 1.39547,0.61847 2.71965,-1.33236 3.41712,-5.03426 7.09949,-7.125 12.54912,-7.125 1.76099,0 2.57511,0.15214 3.61197,0.675 1.93737,0.97696 2.38752,2.06182 2.3881,5.75528 9e-4,5.22107 -1.19288,6.53084 -6.29954,6.9121 -6.58669,0.49176 -10.09018,2.98087 -12.04507,8.55762 -0.66137,1.88669 -0.68885,2.38827 -0.84658,15.45 -0.18481,15.30339 -0.13937,15.01212 -2.50465,16.05573 -1.52493,0.67284 -5.70932,0.97326 -7.9751,0.57258 z"
       style="fill:#3a3a3a" />
    <path
       id="path3446"
       d="m 315.23171,337.43735 c -0.9987,-0.56367 -1.35,-1.21791 -1.35,-2.51406 0,-1.60293 0.94701,-3.16506 6.24351,-10.29912 7.59912,-10.23546 9.33558,-12.99507 9.34989,-14.85888 0.0102,-1.32294 -1.32705,-3.53158 -7.83564,-12.942 -3.30951,-4.785 -6.15072,-9.0375 -6.31386,-9.45 -0.63204,-1.59835 -0.61809,-2.52476 0.0508,-3.37509 l 0.64887,-0.82491 4.93785,0 c 5.65182,0 6.36903,0.18506 7.9368,2.04793 0.56748,0.6743 2.70795,4.4753 4.75659,8.44667 3.86865,7.49951 5.23476,9.55779 6.11856,9.21865 0.71361,-0.27384 2.06238,-2.49998 5.76381,-9.51325 4.00374,-7.58612 4.82802,-8.87715 6.03252,-9.44873 1.4157,-0.67179 10.96347,-0.65526 11.63889,0.0202 0.66216,0.66218 0.58617,2.47128 -0.16317,3.88301 -0.88854,1.67407 -6.62019,10.2037 -10.19664,15.17435 -3.63198,5.04777 -4.03761,5.899 -3.53688,7.42195 0.67791,2.06187 5.56917,9.39624 11.56443,17.34069 2.00946,2.6628 3.86733,5.25486 4.12863,5.76012 0.75468,1.45941 0.61953,2.89125 -0.34446,3.64953 -0.78135,0.61461 -1.07139,0.64008 -6.225,0.54678 -4.43433,-0.0803 -5.57634,-0.19134 -6.3564,-0.61812 -0.68142,-0.37278 -1.56465,-1.56315 -3.11637,-4.2 -8.78586,-14.92983 -8.96121,-15.17526 -10.30521,-14.42313 -0.25626,0.14343 -2.79729,4.22676 -5.64672,9.07413 -3.09357,5.26263 -5.52159,9.06633 -6.0267,9.4413 -0.77031,0.57183 -1.30665,0.6348 -6,0.70431 -3.40986,0.0505 -5.35713,-0.0383 -5.75409,-0.26229 z"
       style="fill:#3a3a3a" />
    <path
       id="path3444"
       d="m 468.83171,267.31053 c -1.57395,-0.41424 -2.85819,-1.23698 -3.47589,-2.22681 -0.59109,-0.94716 -0.59817,-1.4144 -0.51174,-33.81043 0.0958,-35.92484 -0.012,-33.85521 1.83354,-35.22302 0.71115,-0.52708 1.35645,-0.64101 4.05,-0.71505 2.78103,-0.0764 3.33123,-0.009 4.167,0.51324 1.15731,0.72269 1.98987,2.26642 2.65899,4.93018 0.27333,1.08807 0.6822,2.13206 0.90861,2.31998 0.71859,0.59636 1.72905,0.0465 3.11238,-1.6938 3.8082,-4.79068 8.21634,-6.78003 15.00711,-6.7726 7.75812,0.008 14.06031,3.30028 18.13005,9.4698 4.22769,6.40895 5.95422,17.33486 4.2003,26.58073 -1.03854,5.47483 -3.33303,10.07881 -6.85662,13.75809 -4.6209,4.82506 -9.75015,7.02981 -16.37373,7.03807 -5.35845,0.007 -9.10848,-1.2384 -12.87798,-4.27571 -1.06041,-0.85442 -2.14041,-1.51197 -2.4,-1.46122 -0.41727,0.0816 -0.47202,1.17616 -0.47202,9.43873 0,8.97 -0.0249,9.38062 -0.61935,10.19452 -1.10277,1.50996 -2.58909,2.00574 -6.27615,2.09351 -1.81749,0.0433 -3.7095,-0.0279 -4.2045,-0.15821 z"
       style="fill:#3a3a3a" />
    <path
       id="path3442"
       d="m 497.03114,238.74774 c 3.24951,-1.2158 5.55765,-4.38987 6.63522,-9.12445 0.7707,-3.38625 0.77598,-10.39373 0.01,-12.89097 -1.58595,-5.1688 -4.7448,-8.07632 -9.62073,-8.85525 -5.9073,-0.9437 -10.90185,2.3702 -13.10661,8.69622 -0.57651,1.65421 -0.68205,2.58707 -0.69576,6.15 -0.0378,9.83821 3.24123,15.51152 9.62385,16.65091 2.00121,0.35725 5.29623,0.0687 7.15428,-0.62646 z"
       style="fill:#3a3a3a" />
    <path
       id="path3440"
       d="m 261.08171,251.45725 c -0.5775,-0.0659 -1.86,-0.3046 -2.85,-0.53039 -7.12998,-1.62608 -11.62004,-7.10577 -11.17251,-13.635 0.20592,-3.00441 1.04955,-4.9229 3.01331,-6.85252 3.3197,-3.26198 7.4238,-4.49053 19.2592,-5.76521 6.83906,-0.73656 9.18062,-1.20236 11.20743,-2.22941 2.12012,-1.07435 2.44257,-1.82624 2.44257,-5.69543 0,-5.02179 -1.40462,-7.75133 -4.77318,-9.27547 -1.90287,-0.86098 -7.05138,-1.06868 -9.42026,-0.38003 -3.3297,0.96797 -5.51515,3.55746 -6.22796,7.37935 -0.6658,3.56986 -0.92426,4.30193 -1.81135,5.13059 -2.16118,2.01885 -9.66436,1.95138 -11.59554,-0.10426 -1.12406,-1.19651 -1.57171,-2.73984 -1.57171,-5.41871 0,-5.23232 1.74562,-9.4823 5.38702,-13.11554 4.52847,-4.51833 10.93994,-6.59386 20.35969,-6.59087 13.32096,0.004 20.73884,4.82827 23.5248,15.29879 0.66818,2.51123 0.67849,2.8191 0.67849,20.25 0,16.58089 -0.0343,17.75053 -0.54257,18.49915 -0.92202,1.35807 -2.42787,1.87983 -5.45743,1.89094 -4.31576,0.0158 -5.37531,-0.96045 -6.35762,-5.85802 -0.28091,-1.40055 -0.66306,-2.50477 -0.89808,-2.59496 -0.24531,-0.0941 -1.57719,1.03387 -3.32669,2.81746 -2.17459,2.21695 -3.4524,3.25022 -5.01761,4.05737 -4.32145,2.22851 -10.02153,3.2734 -14.85,2.72217 z"
       style="fill:#3a3a3a" />
    <path
       id="path3438"
       d="m 272.44229,240.73735 c 5.54131,-1.47487 9.82103,-6.08983 10.16996,-10.9666 0.11298,-1.57907 0.0501,-2.04083 -0.2958,-2.17358 -0.24159,-0.0927 -1.64199,0.36783 -3.112,1.02343 -2.94375,1.31286 -5.34271,2.03012 -9.87274,2.95183 -6.00646,1.22211 -7.351,2.09093 -7.34887,4.74873 10e-4,1.96591 0.84505,3.21483 2.77942,4.11542 1.85914,0.86557 5.08356,0.99184 7.68003,0.30077 z"
       style="fill:#3a3a3a" />
    <path
       id="path3436"
       d="m 376.2281,250.92396 c -14.31462,-2.40897 -22.72446,-14.00316 -22.06272,-30.4167 0.30861,-7.654 2.38893,-13.04506 6.91275,-17.91399 4.6326,-4.98601 10.93317,-7.66364 19.10139,-8.11776 8.98743,-0.49966 17.44722,2.29608 21.75876,7.19073 2.60814,2.96089 4.34343,7.50724 4.34343,11.37957 0,2.42701 -0.47556,3.71685 -1.77285,4.80845 -1.9068,1.60447 -6.10638,2.01496 -8.54367,0.8351 -1.57476,-0.76235 -2.16372,-1.61692 -3.48162,-5.05187 -2.03916,-5.31482 -4.55112,-6.95498 -10.65186,-6.95498 -4.38234,0 -7.28145,1.09724 -9.62922,3.64444 -2.41032,2.61503 -3.38679,5.63662 -3.61818,11.19619 -0.19332,4.6445 0.25908,7.25673 1.82946,10.56349 2.32938,4.90499 6.30843,7.27487 12.22818,7.28295 5.35167,0.007 7.47483,-0.86408 11.32701,-4.64878 3.64728,-3.58338 5.39013,-4.29222 8.4582,-3.44004 1.40193,0.38939 3.15561,2.30983 3.42612,3.75193 1.10445,5.8871 -4.77252,12.4473 -13.38636,14.9426 -4.7343,1.37145 -11.40936,1.76141 -16.23882,0.94867 z"
       style="fill:#3a3a3a" />
    <path
       id="path3434"
       d="m 429.32009,250.94256 c -11.19618,-1.9797 -18.44262,-8.63103 -21.26586,-19.51941 -0.86781,-3.34682 -1.09983,-10.59641 -0.47052,-14.7 1.05348,-6.8694 2.97147,-11.02356 6.94143,-15.03445 2.3052,-2.32894 3.12921,-2.94111 5.55657,-4.12797 3.48384,-1.70344 6.54294,-2.51237 11.19927,-2.96146 7.31961,-0.70596 15.13668,0.85361 19.98489,3.98716 5.79525,3.74566 8.9943,9.09704 10.37526,17.35589 0.71322,4.26525 0.49356,11.76967 -0.44415,15.17384 -2.79702,10.15425 -9.39642,16.91178 -18.91527,19.36855 -3.23199,0.83416 -9.56769,1.05796 -12.96162,0.45785 z"
       style="fill:#3a3a3a" />
    <path
       id="path3432"
       d="m 437.4938,238.77085 c 3.59109,-0.68103 6.90414,-3.03001 8.69952,-6.16799 0.49791,-0.87025 1.18965,-2.7067 1.5372,-4.08099 0.53736,-2.12485 0.60561,-3.03738 0.45603,-6.09872 -0.28077,-5.74654 -1.46973,-8.95239 -4.26912,-11.51085 -1.92858,-1.76262 -4.0551,-2.64557 -7.37388,-3.06171 -4.53993,-0.56926 -8.32656,0.58971 -10.89372,3.33421 -2.76423,2.9552 -4.05411,7.05071 -4.0629,12.90032 -0.008,5.32553 1.15137,8.83408 3.79164,11.47437 2.85657,2.85656 7.49832,4.08694 12.11523,3.21136 z"
       style="fill:#3a3a3a" />
    <path
       id="path3430"
       d="m 600.68171,251.19855 c -0.4125,-0.0728 -1.56,-0.27288 -2.55,-0.44457 -7.5873,-1.31585 -13.9236,-5.65982 -17.73015,-12.15523 -0.95964,-1.63748 -2.42091,-5.66114 -3.03165,-8.34769 -0.62058,-2.72986 -0.6921,-11.09256 -0.1221,-14.27792 1.1322,-6.32723 3.24939,-10.7357 6.92289,-14.41515 2.12907,-2.13252 3.0417,-2.8007 5.41101,-3.96168 5.25456,-2.57477 11.74548,-3.6401 18.225,-2.99121 7.18893,0.71994 12.10173,2.66877 16.07004,6.37472 3.73049,3.48388 5.91626,7.62288 7.07906,13.40499 3.51081,17.45763 -4.27395,32.23379 -19.0241,36.10939 -2.3211,0.60987 -9.30744,1.04728 -11.25,0.70435 z"
       style="fill:#3a3a3a" />
    <path
       id="path3428"
       d="m 607.34195,238.73876 c 3.79002,-0.79715 6.92493,-3.16855 8.61519,-6.51696 1.38909,-2.75174 1.82457,-4.82289 1.82457,-8.67747 0,-9.52945 -3.68328,-14.64804 -11.2698,-15.66145 -6.24171,-0.83376 -10.98483,1.42457 -13.41474,6.3871 -1.24008,2.53259 -1.75125,4.82329 -1.91976,8.60316 -0.17352,3.89189 0.28791,6.76813 1.51617,9.45102 2.31135,5.04862 8.42151,7.7243 14.64837,6.4146 z"
       style="fill:#3a3a3a" />
    <path
       id="path3426"
       d="m 709.2817,251.04164 c -2.82945,-0.43327 -7.03407,-1.91421 -9.45,-3.32847 -1.26576,-0.74096 -3.177,-2.31398 -4.81107,-3.95967 -2.15772,-2.17307 -2.99331,-3.28145 -4.09389,-5.43036 -2.69103,-5.25428 -3.69162,-9.77616 -3.65106,-16.5 0.0591,-9.79436 3.19674,-16.87644 9.7839,-22.08328 6.34689,-5.01694 17.31216,-6.68421 27.16296,-4.13011 7.76163,2.01243 13.24209,7.24578 15.19869,14.51339 0.6819,2.53286 0.94296,8.33877 0.46461,10.3328 -0.46395,1.93387 -1.76295,3.49415 -3.25383,3.90824 -0.68544,0.19039 -7.33599,0.30624 -17.63859,0.30729 -14.34969,0.001 -16.58778,0.0614 -16.91256,0.45267 -0.65328,0.78716 -0.24774,5.1057 0.66687,7.10154 2.13003,4.64806 6.50034,7.14746 12.49767,7.14746 5.28198,0 7.74054,-1.01231 11.31438,-4.6587 2.73177,-2.78724 3.70653,-3.39668 5.83599,-3.64889 3.82302,-0.45278 6.63939,2.42872 6.17838,6.32124 -0.38991,3.29217 -3.16902,7.11562 -7.04667,9.69467 -2.04984,1.36336 -5.93766,2.86179 -9.19578,3.54421 -2.87322,0.6018 -10.2921,0.83828 -13.05,0.41597 z"
       style="fill:#3a3a3a" />
    <path
       id="path3424"
       d="m 726.71974,216.2351 c 0.54114,-0.54114 0.61338,-0.87705 0.47562,-2.21172 -0.0893,-0.86552 -0.43722,-2.11235 -0.7731,-2.77073 -0.86427,-1.6941 -3.36642,-3.83383 -5.35185,-4.57668 -3.49386,-1.30722 -8.62701,-1.37524 -12.08871,-0.1602 -3.93081,1.3797 -6.84612,4.89783 -6.88683,8.31094 -0.0252,2.10801 -0.40008,2.04643 12.45825,2.04643 11.35773,0 11.53803,-0.009 12.16662,-0.63804 z"
       style="fill:#3a3a3a" />
    <path
       id="path3422"
       d="m 761.67829,250.8941 c -5.43933,-0.98274 -9.71562,-2.99921 -12.72678,-6.00128 -2.52018,-2.51255 -3.79335,-5.17375 -3.79335,-7.9289 0,-3.64999 1.71999,-5.47431 5.1846,-5.49913 2.21541,-0.0159 3.23202,0.54244 6.18894,3.39901 2.78622,2.69165 4.06407,3.55126 6.75045,4.54104 1.74513,0.64299 2.43711,0.7183 6.59955,0.7183 5.3463,0 6.85161,-0.38232 8.38602,-2.12991 0.78441,-0.89339 0.91398,-1.27762 0.91398,-2.71017 0,-1.47135 -0.1077,-1.7698 -0.90861,-2.51796 -1.4232,-1.32948 -4.31505,-2.1398 -12.74139,-3.57027 -5.27283,-0.89513 -8.06418,-1.69118 -11.13897,-3.17672 -5.96904,-2.88385 -8.60913,-7.02223 -8.60913,-13.49497 0,-4.78715 1.56387,-8.513 4.8903,-11.65099 2.16312,-2.04057 3.73869,-3.03012 6.73011,-4.22688 7.54518,-3.01854 19.14195,-2.72101 26.39079,0.67708 5.54814,2.60085 9.15774,8.09836 8.44371,12.85993 -0.64659,4.31182 -7.47291,6.18966 -10.91112,3.00154 -0.39189,-0.36337 -1.23375,-1.42402 -1.8708,-2.357 -2.22156,-3.25349 -4.80066,-4.65768 -9.11391,-4.96207 -6.45468,-0.45551 -10.36098,1.62365 -10.36098,5.51471 0,4.30133 2.44194,5.67139 14.1,7.91081 5.56707,1.06939 11.26131,2.8162 13.66704,4.19262 4.79793,2.7451 6.99309,7.43269 6.16182,13.15797 -0.65772,4.52978 -3.55317,8.60015 -7.87779,11.07445 -2.21865,1.26938 -6.45777,2.64292 -9.85932,3.19456 -3.55563,0.57663 -11.26272,0.56825 -14.49516,-0.0158 z"
       style="fill:#3a3a3a" />
    <path
       id="path3420"
       d="m 218.23683,250.1569 c -3.23874,-0.4303 -4.90116,-1.91361 -5.25921,-4.69259 -0.28404,-2.20452 0.32968,-46.358 0.65612,-47.20419 0.15638,-0.40534 0.61103,-1.04067 1.01034,-1.41185 1.48441,-1.37982 6.56015,-1.59466 8.58484,-0.36338 1.2441,0.75659 1.70651,1.75578 2.29535,4.9599 0.27372,1.48941 0.60999,2.88976 0.74728,3.1119 0.41513,0.67169 1.07895,0.1617 2.7843,-2.13908 2.99473,-4.04034 5.8203,-5.89543 9.97586,-6.54951 5.85536,-0.92162 8.55195,1.02622 8.54833,6.17476 -0.002,3.12432 -0.42545,4.52799 -1.77109,5.87363 -1.18779,1.18779 -1.29351,1.21746 -6.10419,1.71297 -4.77578,0.49192 -7.60622,2.19276 -9.47082,5.6911 -1.81073,3.39729 -1.91063,4.28785 -2.11568,18.86145 l -0.18655,13.25887 -1.0039,1.03523 c -1.49849,1.54525 -4.84292,2.19205 -8.69098,1.68079 z"
       style="fill:#3a3a3a" />
    <path
       id="path3418"
       d="m 564.49472,250.187 c -2.31504,-0.27169 -3.99234,-1.13204 -4.76301,-2.44311 -0.58029,-0.98723 -0.59667,-1.46396 -0.49854,-14.52074 0.0684,-9.10154 -0.0114,-14.32025 -0.24513,-16.01754 -0.62982,-4.57484 -2.04039,-7.16621 -4.62792,-8.50193 -1.47927,-0.76363 -5.40225,-1.06515 -7.2756,-0.55921 -3.05031,0.8238 -5.81688,3.76238 -7.07475,7.51459 -0.63225,1.886 -0.6648,2.55069 -0.81825,16.71764 -0.156,14.40254 -0.17484,14.77369 -0.79116,15.6 -1.31034,1.75672 -2.26155,2.04645 -6.71865,2.04645 -4.4985,0 -5.81409,-0.38309 -7.03065,-2.04725 -0.61743,-0.84462 -0.61935,-0.95613 -0.61935,-35.85 0,-34.61772 0.007,-35.0143 0.60834,-36.05275 1.03962,-1.79434 2.40492,-2.25 6.74166,-2.25 3.9819,0 4.87251,0.23896 6.15072,1.65029 0.57375,0.63353 0.60639,1.21286 0.7665,13.60571 0.092,7.1192 0.19323,12.97775 0.225,13.019 0.27177,0.35281 1.10046,-0.26658 3.04863,-2.2786 3.5538,-3.67025 7.45428,-5.1464 13.59852,-5.1464 5.58039,0 9.63234,1.56736 13.12266,5.07606 2.51679,2.53006 3.75483,4.72025 4.76181,8.42394 1.04385,3.8393 1.22115,7.15503 1.2237,22.88464 0.003,16.52815 0,16.56649 -1.65036,17.86397 -1.43316,1.12733 -4.82016,1.65417 -8.13417,1.26524 z"
       style="fill:#3a3a3a" />
    <path
       id="path3416"
       d="m 162.6526,249.88849 c -2.0924,-0.38306 -3.25705,-1.10895 -3.77742,-2.35437 -0.40674,-0.97347 -0.42293,-2.9697 -0.14154,-17.45508 0.21171,-10.89927 0.22321,-21.6291 0.0344,-32.16202 -0.31577,-17.62053 -0.3169,-17.60653 1.51363,-18.67751 1.17262,-0.68607 -2.4791,-0.66279 32.45564,-0.20694 l 14.60564,0.19058 0.90322,0.86566 c 1.03129,0.98842 1.53549,2.82211 1.53549,5.58434 0,2.89989 -0.5426,4.8026 -1.69948,5.95949 l -1.01982,1.01981 -15.36535,-0.21948 -15.36534,-0.21947 -0.825,0.6516 -0.825,0.6516 0,8.39312 c 0,9.30408 0.0913,9.82271 1.83565,10.4308 0.64303,0.22417 5.41203,0.33468 14.63411,0.33912 12.72604,0.006 13.76661,0.0458 14.91855,0.56891 1.729,0.78513 2.3137,2.35691 2.16844,5.82915 -0.0839,2.0053 -0.24103,2.73315 -0.73373,3.39858 -1.31022,1.76952 -1.01907,1.73886 -17.42202,1.83469 -11.69288,0.0683 -15.11933,0.17268 -15.3644,0.46797 -0.20472,0.24667 -0.34545,4.33726 -0.40101,11.65592 -0.0819,10.78701 -0.11161,11.30503 -0.68559,11.94844 -1.05378,1.18122 -2.47491,1.56591 -6.15,1.66476 -1.8975,0.051 -4.0706,-0.0208 -4.82912,-0.15967 z"
       style="fill:#3a3a3a" />
    <path
       id="path3414"
       d="m 304.91759,249.82739 c -1.52457,-0.43846 -2.32809,-1.07112 -2.90532,-2.28754 -0.48555,-1.02322 -0.50994,-2.71031 -0.3576,-24.71762 0.15375,-22.21265 0.19665,-23.68684 0.72027,-24.75091 0.87492,-1.778 2.13738,-2.32847 5.34642,-2.33124 4.21698,-0.004 5.25522,0.88026 6.2937,5.35819 0.54111,2.33322 0.93195,3.17489 1.47426,3.17489 0.21255,0 1.03287,-0.94604 1.82292,-2.10231 3.75093,-5.48965 8.15292,-7.61272 15.76947,-7.60557 3.56574,0.003 4.33755,0.0986 6.45492,0.79675 5.8935,1.94321 9.8007,6.3343 11.58735,13.02235 0.75915,2.84171 1.10382,11.29415 1.13643,27.86942 0.0213,10.80271 0.0195,10.83326 -0.66468,11.85 -1.04607,1.55449 -2.34915,1.88776 -7.41402,1.89616 -3.57165,0.006 -4.52355,-0.0862 -5.31993,-0.51487 -1.96254,-1.05638 -1.92414,-0.68019 -1.82214,-17.85506 0.0973,-16.38288 0.0684,-16.81822 -1.31007,-19.75075 -1.38669,-2.95007 -3.98691,-4.40904 -7.89786,-4.4314 -4.96395,-0.0284 -8.32626,2.625 -10.15131,8.01102 -0.59991,1.77041 -0.63969,2.62972 -0.7902,17.06996 l -0.15849,15.2057 -0.85401,0.89099 c -0.48417,0.50515 -1.41861,1.03316 -2.15784,1.2193 -1.58145,0.39822 -7.39704,0.38668 -8.80227,-0.0175 z"
       style="fill:#3a3a3a" />
    <path
       id="path3412"
       d="m 637.13863,249.64953 c -1.03542,-0.36503 -1.70208,-0.83881 -2.175,-1.54573 l -0.68193,-1.01937 0.0189,-21.33063 c 0.0105,-11.73186 0.12057,-22.7882 0.24477,-24.56965 0.21228,-3.04491 0.2787,-3.29191 1.10859,-4.1218 1.09962,-1.09963 3.60801,-1.63163 6.24825,-1.32519 1.56111,0.18119 1.98204,0.36955 2.90253,1.29896 0.88743,0.896 1.19439,1.56034 1.74657,3.78017 0.64884,2.60834 1.03059,3.45687 1.55523,3.45687 0.1383,0 0.97542,-0.97875 1.86027,-2.175 3.84651,-5.20016 7.66041,-7.22747 14.3148,-7.60913 9.92925,-0.5695 16.97184,4.52746 19.5294,14.13413 0.56436,2.11978 0.66741,3.62596 0.88257,12.9 0.40269,17.35759 0.35886,24.89974 -0.15183,26.12202 -0.66096,1.58192 -2.46516,2.26842 -6.44094,2.45077 -4.26936,0.19582 -6.51048,-0.23123 -7.61886,-1.4518 l -0.84969,-0.93568 0.0784,-15.49266 c 0.069,-13.6351 0.0183,-15.73621 -0.42249,-17.52405 -0.90978,-3.68974 -2.13825,-5.34679 -4.85655,-6.55085 -2.08941,-0.92551 -6.00087,-0.9506 -8.00271,-0.0513 -2.98047,1.33889 -5.27604,4.32986 -6.45204,8.40652 -0.43218,1.49817 -0.50133,3.66229 -0.52173,16.32878 -0.0231,14.32183 -0.0355,14.61796 -0.65049,15.44999 -1.07796,1.45845 -2.01399,1.72991 -6.27303,1.81924 -3.10647,0.0652 -4.20378,-0.0253 -5.39307,-0.44457 z"
       style="fill:#3a3a3a" />
    <path
       id="path3410"
       d="m 815.21308,219.1177 c -3.41526,-0.95914 -5.57721,-2.75577 -11.81544,-9.81894 -1.23957,-1.40352 -2.93859,-2.894 -4.35,-3.81609 -2.09811,-1.37074 -2.42004,-1.71584 -3.42285,-3.66922 -0.60879,-1.18589 -1.04856,-2.25053 -0.97728,-2.36586 0.20361,-0.32946 5.71839,-2.00142 8.53419,-2.58737 3.59985,-0.74912 12.24774,-0.75431 15,-0.009 9.08301,2.45967 13.27728,9.73655 9.69657,16.82319 -0.99417,1.96757 -3.08673,3.99009 -5.06562,4.89605 -2.09055,0.95709 -5.31375,1.18919 -7.59957,0.54724 z"
       style="fill:#3a3a3a" />
    <path
       id="path3408"
       d="m 789.54469,192.46014 c 0.42765,-1.51951 3.0204,-6.54247 4.58499,-8.88267 3.19827,-4.78365 9.54861,-10.73033 13.70565,-12.83446 4.18458,-2.11806 9.009,-2.44136 12.31251,-0.8251 2.24217,1.097 4.16883,3.03041 5.17812,5.1963 1.12536,2.41502 1.27764,6.08705 0.35448,8.54799 -1.26216,3.3646 -5.09853,6.30151 -9.30003,7.11954 -1.85541,0.36124 -4.19853,0.20405 -9.44871,-0.63389 -6.46476,-1.03179 -10.36056,-0.60082 -14.93316,1.65198 -2.37564,1.17043 -2.61561,1.235 -2.45385,0.66031 z"
       style="fill:#3a3a3a" />
    <path
       id="path3406"
       d="m 782.8144,189.17068 c -2.06802,-3.00575 -4.4634,-9.02267 -5.59047,-14.0425 -0.76605,-3.41189 -0.93255,-10.77025 -0.30732,-13.58058 1.50222,-6.75212 5.81832,-10.77243 11.56509,-10.77243 2.96034,0 5.16393,0.85225 7.33572,2.83714 3.19569,2.92067 4.25856,7.1383 2.91423,11.56414 -0.86901,2.86108 -1.97685,4.39139 -6.81033,9.40742 -3.41838,3.54747 -4.44135,4.81804 -5.43825,6.75435 -1.48965,2.89342 -1.86174,4.01297 -2.3211,6.98399 l -0.35439,2.29201 -0.99318,-1.44354 z"
       style="fill:#3a3a3a" />
    <path
       id="path3404"
       d="m 241.7317,458.21787 -22.8,-10.46631 -23.69999,-2.28819 c -13.035,-1.25853 -23.97,-2.39727 -24.3,-2.53053 -0.33,-0.13329 -7.89,-10.48581 -16.8,-23.00565 l -16.2,-22.76334 -0.15,-12.70569 -0.15,-12.70566 -15.98341,-5.18958 c -8.79087,-2.85426 -16.18212,-5.35449 -16.425,-5.55606 -0.24288,-0.20157 -0.44159,-0.69477 -0.44159,-1.09602 0,-0.40125 2.0356,-8.69913 4.52355,-18.43971 2.48795,-9.74061 4.4792,-17.74281 4.425,-17.78268 -0.0946,-0.0696 -14.897655,-2.56041 -15.872971,-2.67087 -0.26094,-0.0297 -4.74966,3.96252 -9.97496,8.87127 -5.9301,5.57088 -9.72648,8.925 -10.10177,8.925 -0.68575,0 -78.4701894,-36.14865 -79.2738894,-36.84082 -0.2887,-0.2487 -0.525,-0.70108 -0.525,-1.00529 0,-0.5009 18.8783494,-50.39225 19.5252894,-51.60106 0.15076,-0.28171 0.51051,-0.58612 0.79943,-0.67648 0.28893,-0.0904 10.71405,-2.26248 23.16695,-4.82694 12.4529,-2.56447 22.72663,-4.76094 22.83052,-4.88104 0.1039,-0.1201 2.29803,-10.79796 4.87586,-23.72857 2.57782,-12.93061 4.81415,-23.66311 4.96961,-23.85 0.15545,-0.18689 2.65359,-1.5548 5.55141,-3.0398 2.89782,-1.485 5.27151,-2.77124 5.27487,-2.85831 0.003,-0.0871 -5.83265,-5.37363 -12.9689,-11.74791 -7.13625,-6.37429 -13.29526,-11.93182 -13.68669,-12.35009 -0.49542,-0.52938 -0.65882,-0.97064 -0.5377,-1.45208 0.0957,-0.38039 8.6847,-10.9045 19.08669,-23.38693 10.40199,-12.48242 18.9127,-22.92225 18.9127,-23.19961 0,-0.27737 -1.61959,-6.78037 -3.59909,-14.451117 -3.74008,-14.49319 -3.7703,-14.68116 -2.46903,-15.36083 0.28496,-0.14884 10.170616,-3.34044 21.968121,-7.09245 l 21.45,-6.82182 24.25674,-11.66443 24.25675,-11.66443 21.46047,0 21.46048,0 13.64498,8.4228 c 7.50473,4.63254 13.75524,8.31129 13.89,8.175 0.13477,-0.13629 5.24513,-9.6303 11.35635,-21.0978 6.11123,-11.4675 11.39918,-21.08625 11.75101,-21.375 0.57304,-0.4703 1.45693,-0.525 8.48433,-0.525 l 7.84465,0 5.84423,-5.85 c 3.21432,-3.217495 6.07905,-5.849995 6.36606,-5.849995 0.60108,0 23.29329,8.635145 23.85894,9.079125 0.68373,0.53668 0.39603,1.82207 -2.0319,9.0779 -1.32378,3.95614 -2.37003,7.41753 -2.325,7.692 0.0451,0.27446 7.87815,8.81305 17.4069,18.97465 12.35643,13.17707 17.325,18.67039 17.325,19.15473 0,0.47561 -1.34835,2.02521 -4.5,5.17159 -2.475,2.47088 -4.5,4.60829 -4.5,4.74981 0,0.14151 4.87998,8.44008 10.84443,18.441257 5.96445,10.00117 10.90089,18.39982 10.96989,18.66366 0.069,0.26384 -0.12939,0.79442 -0.44085,1.17906 -0.52293,0.64579 -1.38618,0.81893 -11.27304,2.26094 -5.8887,0.85887 -10.80657,1.6593 -10.92858,1.77873 -0.12201,0.11943 -1.98732,6.95459 -4.14513,15.18925 l -3.92328,14.9721 25.73325,17.58853 c 14.15325,9.67368 25.96899,17.76093 26.25717,17.97165 0.40683,0.29749 0.0581,0.28802 -1.55994,-0.0423 -3.34305,-0.68255 -11.14926,-0.84226 -14.68392,-0.30044 -5.28564,0.81024 -9.97467,2.60524 -14.1,5.39762 -1.87134,1.26669 -5.19249,4.40981 -6.5121,6.16303 l -0.76236,1.01285 -1.0074,-1.91285 c -1.49835,-2.84516 -5.47014,-6.7 -8.53512,-8.28386 -4.16514,-2.15237 -6.38568,-2.62851 -12.13302,-2.60162 -4.04568,0.0189 -5.36847,0.138 -7.24071,0.65184 -2.43528,0.66838 -5.73978,2.2205 -7.43985,3.49448 l -1.03053,0.77227 -0.96117,-1.04933 c -1.44444,-1.57697 -3.82164,-2.54012 -6.7857,-2.7493 -5.19771,-0.36681 -9.02124,1.00567 -10.98741,3.94399 -0.54747,0.81814 -1.0706,1.86354 -1.16251,2.32311 -0.21169,1.05846 -0.37911,1.04758 -1.46099,-0.095 -0.48462,-0.5118 -1.69113,-1.50838 -2.68113,-2.21463 -5.29359,-3.77637 -10.90001,-5.25243 -19.95,-5.25243 -8.70183,0 -14.8598,1.48658 -20.13411,4.86052 l -1.63715,1.04727 -1.14394,-1.31503 c -2.17128,-2.49603 -5.71309,-3.6259 -10.3318,-3.29593 -3.8639,0.27605 -7.29547,1.46094 -9.90486,3.42008 l -1.00187,0.7522 -0.84147,-1.02085 c -1.87416,-2.27368 -5.69685,-3.47774 -10.00047,-3.14991 -1.34988,0.10282 -2.78085,0.27891 -3.17993,0.39132 -0.62935,0.17726 -0.69385,0.12833 -0.48625,-0.36886 0.13163,-0.31527 0.30678,-2.02541 0.38922,-3.8003 0.2465,-5.30749 -0.76512,-8.69573 -3.22489,-10.8012 -2.28678,-1.9574 -1.97604,-1.93124 -27.00247,-2.27338 -14.18262,-0.19389 -23.20239,-0.20444 -24.12762,-0.0282 -3.4071,0.64891 -6.12337,3.16781 -6.68579,6.20001 -0.14587,0.78643 -0.25159,16.61738 -0.23493,35.17988 l 0.0303,33.75 0.63495,1.21587 c 1.39733,2.67575 4.09608,4.36606 7.92189,4.96173 2.85956,0.44522 9.20963,0.18867 11.27296,-0.45544 2.76679,-0.86372 5.10793,-3.10506 5.78343,-5.53687 0.17164,-0.61793 0.30218,-5.05057 0.30313,-10.29335 l 0.002,-9.20806 13.425,-0.112 c 7.38375,-0.0616 13.71848,-0.21728 14.07718,-0.34596 l 0.65218,-0.23396 0.0978,9.41134 0.0978,9.41136 0.9876,2.00507 c 1.6972,3.44575 4.28335,5.0388 9.26124,5.70483 5.27438,0.7057 10.34045,-0.64541 12.8387,-3.42407 2.35296,-2.61706 2.34231,-2.54294 2.55969,-17.80049 0.11686,-8.20231 0.31705,-13.86006 0.51013,-14.41753 1.22592,-3.53949 3.41633,-5.10151 6.84264,-4.87962 l 1.5,0.0971 0.20546,1.86255 c 0.35922,3.25648 1.89966,5.97131 4.22181,7.44042 l 1.29948,0.82211 -1.70286,1.62425 c -3.01272,2.87352 -4.47402,6.54774 -4.47402,11.24893 0,5.3625 1.44491,8.93301 5.09014,12.57824 3.81002,3.81002 8.73931,5.82674 15.09937,6.17763 3.26644,0.18021 7.10592,-0.18201 10.35982,-0.97734 2.23251,-0.54568 6.8708,-2.65152 8.39236,-3.81022 l 0.99169,-0.75519 1.34418,1.43704 c 1.83975,1.96685 3.77971,2.7695 7.107,2.94049 3.22816,0.1659 5.85167,-0.31195 7.97278,-1.45219 l 1.60734,-0.86405 1.40265,0.71078 c 2.1909,1.1102 4.5987,1.44792 9.3822,1.31592 3.93201,-0.1085 4.4547,-0.18998 6.10047,-0.95098 2.20275,-1.01855 3.26325,-1.99166 4.30296,-3.94839 l 0.79704,-1.5 0.16296,-15.15 c 0.18336,-17.04762 0.2112,-17.27708 2.37678,-19.59869 1.09836,-1.17752 1.23255,-1.23296 3.26169,-1.34761 1.98018,-0.11189 2.16372,-0.0683 2.85618,0.67891 1.45038,1.56498 1.53789,2.69107 1.54023,19.81739 l 0.003,15.9 0.9,1.62687 c 1.91496,3.46154 4.37325,4.37802 11.7,4.36192 5.61816,-0.0124 7.09839,-0.35245 9.68322,-2.2249 1.28451,-0.9305 3.06678,-4.03141 3.06678,-5.3358 0,-0.67284 0.12651,-0.61258 1.725,0.8217 3.83454,3.44061 8.02461,5.64646 13.55286,7.13488 2.65224,0.71409 3.36597,0.7747 9.32214,0.79171 5.17098,0.0148 6.94353,-0.0897 8.93883,-0.52656 7.6839,-1.68252 13.58385,-5.11243 17.02824,-9.89931 l 0.61122,-0.84948 2.38587,2.38361 c 3.62334,3.61993 7.72998,6.05817 12.83784,7.62221 l 2.148,0.65773 -2.3043,0.36124 c -4.42263,0.69333 -7.31883,2.62746 -8.82813,5.89564 l -0.86757,1.87854 -0.0895,10.42225 -0.0895,10.42226 -2.01054,-1.54692 c -2.51895,-1.93808 -7.26849,-4.22299 -10.41054,-5.00829 -7.11507,-1.77829 -16.18251,-1.66343 -22.51728,0.28524 -2.51643,0.77409 -6.35271,2.6481 -8.33712,4.07263 -0.79989,0.57423 -1.47759,1.00103 -1.50597,0.94844 -0.0285,-0.0526 -0.34932,-0.73359 -0.71319,-1.51335 -0.75468,-1.61725 -2.53218,-3.06258 -4.37748,-3.55947 -0.74877,-0.20162 -3.44196,-0.28346 -7.07877,-0.21512 -5.48739,0.10312 -5.96799,0.15792 -7.37019,0.84041 -2.53026,1.23154 -3.93585,2.99789 -7.0026,8.79977 -1.54224,2.91618 -2.8461,5.30215 -2.89824,5.30215 -0.0521,0 -1.356,-2.38597 -2.8974,-5.30216 -3.15597,-5.97071 -4.5978,-7.73788 -7.37163,-9.03505 -1.65531,-0.77411 -1.97949,-0.81411 -7.41738,-0.91523 -6.04071,-0.11233 -7.2735,0.0619 -9.06828,1.28146 l -0.98433,0.66888 -2.18049,-0.74003 c -1.6761,-0.56885 -3.01323,-0.77238 -5.78049,-0.8799 -5.6256,-0.21858 -9.42327,0.9435 -11.67311,3.57193 -1.94824,2.27608 -1.99484,2.69963 -1.95863,17.8001 0.0271,11.30829 -0.0443,13.82979 -0.44011,15.53139 -0.94247,4.0521 -2.34225,5.61534 -5.03013,5.6175 -1.83749,0 -3.01316,-0.96453 -3.75185,-3.08274 -0.50088,-1.43628 -0.54617,-2.84724 -0.54617,-17.01615 0,-16.90315 0.0577,-16.30146 -1.8179,-18.95629 -1.11933,-1.58435 -3.73776,-3.05519 -6.26219,-3.51763 -4.22031,-0.77309 -10.05841,-0.18326 -12.61991,1.275 l -1.2,0.68316 -1.90754,-0.88563 c -1.54351,-0.71661 -2.43673,-0.9133 -4.68048,-1.03067 -4.62573,-0.24195 -8.509,0.74954 -11.93101,3.04626 l -1.58097,1.06109 -0.71215,-0.90734 c -2.20953,-2.8151 -8.13446,-4.09554 -13.03945,-2.81795 -0.95022,0.2475 -1.77024,0.45 -1.82227,0.45 -0.052,0 -0.33163,-0.64125 -0.62133,-1.425 -2.79444,-7.5602 -9.86616,-12.87341 -20.61545,-15.48905 -6.01689,-1.46409 -8.82181,-1.74619 -18.93529,-1.90434 -6.03998,-0.0944 -10.72271,-0.0256 -12.75,0.18752 -9.74958,1.02481 -14.69643,3.91971 -16.7137,9.78087 -0.47187,1.37102 -0.52443,4.01502 -0.61124,30.75 -0.0632,19.46883 0.01,29.80176 0.21831,30.9 0.96351,5.07444 5.16167,8.80155 11.83697,10.50879 5.00279,1.2795 8.98055,1.60875 19.61561,1.62357 10.84584,0.0153 13.8845,-0.25575 19.8,-1.76508 4.8848,-1.24635 10.23246,-3.81081 12.62069,-6.05217 l 0.7707,-0.7233 1.0293,2.0178 c 1.15892,2.2719 3.09357,3.97602 5.3793,4.73835 2.28555,0.76227 5.99862,1.09275 8.75649,0.77937 4.66643,-0.53025 7.5739,-2.18862 9.17973,-5.23596 l 0.81224,-1.54137 0.1849,-13.35 c 0.19578,-14.13564 0.35226,-15.72116 1.74309,-17.66179 1.40402,-1.95905 2.6797,-2.59298 5.80157,-2.88301 1.02959,-0.0956 2.51323,-0.24185 3.29698,-0.32489 l 1.425,-0.15098 0,8.94321 c 0,9.69822 0.22932,12.53187 1.36205,16.83045 2.13804,8.11368 7.52024,13.80057 14.98795,15.83649 2.74571,0.74856 9.96092,0.90189 13.10066,0.2784 2.76438,-0.54894 6.17009,-2.02359 8.4404,-3.65466 l 1.48137,-1.06425 1.08879,1.0437 c 1.56753,1.50264 3.33329,2.28537 6.04838,2.6811 2.82783,0.41214 6.0519,0.0497 8.01381,-0.90081 l 1.27341,-0.61698 1.72659,0.94701 1.72659,0.94701 6.3,0 c 5.99409,0 6.37677,-0.0347 7.88103,-0.71454 2.30028,-1.03959 3.97797,-3.09993 7.56897,-9.29535 1.7325,-2.98902 3.22176,-5.43582 3.30948,-5.43735 0.0877,0 1.70202,2.58948 3.58734,5.75778 3.88803,6.53394 4.49097,7.31259 6.50751,8.40414 2.21649,1.19976 4.44003,1.49889 10.30347,1.38612 5.06094,-0.0973 5.30259,-0.13047 6.98904,-0.95856 1.55544,-0.76377 3.18336,-2.38287 3.57393,-3.55455 0.0604,-0.18108 1.15509,0.28962 2.48742,1.06953 3.83691,2.24604 7.52823,3.47394 12.40797,4.1274 3.09147,0.414 10.62144,0.16584 13.68384,-0.45096 1.155,-0.23265 2.25342,-0.33537 2.44092,-0.22833 1.64724,0.94059 53.22963,40.55643 53.47383,41.06847 0.81558,1.71033 5.95938,-0.64452 -94.20786,43.12833 -55.51743,24.261 -94.43679,41.10891 -95.05689,41.1495 -0.82721,0.0541 -5.88755,-2.15196 -23.85,-10.39761 z"
       style="fill:#3a3a3a" />
    <path
       id="path3402"
       d="m 178.13171,338.81622 c -12.26988,-0.61569 -17.68774,-2.39886 -19.65868,-6.47028 l -0.64943,-1.34154 0.0116,-29.23757 c 0.0111,-28.01174 0.0354,-29.29134 0.57901,-30.52027 0.67244,-1.52013 2.35202,-3.07594 4.15497,-3.84877 3.1319,-1.34249 9.50847,-2.07339 18.11252,-2.0761 16.71391,-0.005 27.4661,2.95345 33.26643,9.15402 3.15791,3.37581 4.23644,6.31528 4.22914,11.52617 -0.002,1.75291 -0.20603,4.01716 -0.4568,5.08104 -1.0611,4.50152 -4.05423,8.24444 -8.76147,10.95627 -1.35999,0.78349 -2.56019,1.56608 -2.66712,1.73909 -0.23388,0.37843 0.19546,0.64094 3.42857,2.09627 4.98451,2.24369 7.91063,5.05553 8.97746,8.62682 0.59535,1.99296 0.63605,6.40074 0.0808,8.74659 -1.9934,8.42121 -9.35662,13.47213 -22.00508,15.09474 -4.39392,0.5637 -12.66034,0.77364 -18.64188,0.47352 z"
       style="fill:#3a3a3a" />
    <path
       id="path3400"
       d="m 188.76116,326.51031 c 7.32991,-0.56985 11.34313,-2.38278 12.75463,-5.76183 0.57656,-1.38024 0.60804,-4.71375 0.057,-6.03261 -0.69891,-1.67274 -2.99423,-3.41445 -5.55882,-4.21812 -3.87892,-1.21554 -6.38925,-1.50741 -13.08224,-1.52106 -9.80994,-0.0201 -9.62826,-0.18471 -9.54949,8.65782 0.0588,6.60348 0.12924,6.7968 2.879,7.90305 2.71822,1.09356 6.83003,1.41354 12.49994,0.97275 z"
       style="fill:#ffffff" />
    <path
       id="path3398"
       d="m 189.83171,299.80284 c 5.3311,-0.75935 8.9232,-2.75359 10.49467,-5.82634 0.78609,-1.53709 0.90533,-2.08911 0.90533,-4.19144 0,-3.93106 -1.5432,-6.39742 -5.14433,-8.22173 -3.46484,-1.75528 -11.13622,-2.79972 -16.66028,-2.26828 -3.82482,0.36797 -5.34274,1.02115 -5.85346,2.5188 -0.43719,1.282 -0.53181,15.49304 -0.11054,16.60106 0.2712,0.71331 1.24282,1.19335 3.01861,1.49136 1.54829,0.25984 11.33181,0.18404 13.35,-0.10343 z"
       style="fill:#ffffff" />
    <path
       id="path3396"
       d="m 275.0317,338.92482 c -7.00478,-1.08657 -11.79928,-5.62473 -13.66999,-12.93915 -0.97069,-3.79536 -1.17951,-8.0313 -1.17929,-23.92182 2.5e-4,-17.56611 -0.10374,-16.82591 2.54928,-18.14685 1.35211,-0.67322 1.85494,-0.74592 5.1,-0.73735 3.01324,0.008 3.82879,0.11318 5.0037,0.64556 2.43591,1.10378 2.3463,0.44398 2.3463,17.27575 0,13.67794 0.0447,14.9917 0.58152,17.09062 0.76259,2.9817 1.48226,4.33593 3.09344,5.82108 1.65673,1.52712 3.09597,2.03424 5.77504,2.03484 5.29741,0 8.33023,-2.70477 10.13119,-9.03945 0.64586,-2.27175 0.66649,-2.78043 0.66764,-16.45731 0.001,-16.0282 -0.1182,-15.24338 2.50147,-16.42362 1.1855,-0.5341 1.97354,-0.62957 5.1497,-0.62386 3.14283,0.006 3.97728,0.10804 5.1537,0.63238 2.45442,1.09394 2.3463,0.2153 2.3463,19.06473 0,9.13899 -0.0894,19.89078 -0.19875,23.89287 -0.18303,6.70077 -0.24831,7.34931 -0.825,8.196 -1.22583,1.79973 -2.04978,2.16471 -5.14329,2.27841 -4.86735,0.17892 -6.2592,-0.95628 -7.35776,-6.00087 -0.33572,-1.54161 -0.74705,-2.93793 -0.91409,-3.10293 -0.36979,-0.36528 -0.90708,0.2913 -2.36111,2.88534 -1.9462,3.47208 -5.16146,5.95782 -9.15,7.07388 -1.51492,0.4239 -7.93772,0.7596 -9.6,0.50175 z"
       style="fill:#3a3a3a" />
    <path
       id="path3394"
       d="m 386.38516,338.78622 c -15.0585,-1.59027 -23.92419,-13.36059 -23.22015,-30.82776 0.22635,-5.61596 1.39284,-9.87003 3.86031,-14.07825 1.29486,-2.20835 5.61438,-6.52788 7.82274,-7.82274 5.31774,-3.11804 11.78907,-4.37777 19.08378,-3.71491 14.64735,1.33097 22.37853,9.46812 21.90528,23.05552 -0.13641,3.91638 -0.68997,5.28756 -2.51742,6.23592 -1.1376,0.59037 -1.68732,0.60921 -18.07923,0.61935 -19.73028,0.0123 -17.91504,-0.35103 -17.66505,3.53526 0.34347,5.34033 3.85398,9.45372 9.3072,10.90566 2.05005,0.54585 6.54582,0.53085 8.6952,-0.0291 2.73552,-0.71253 4.06113,-1.55337 7.11762,-4.51476 3.01443,-2.92068 3.97596,-3.43161 6.46407,-3.435 0.70629,0 1.78269,0.29175 2.53419,0.68913 4.52832,2.39463 3.072,9.7635 -2.80221,14.17923 -4.03308,3.03174 -8.75553,4.67454 -15.03564,5.23053 -3.69588,0.32721 -4.12056,0.32559 -7.47069,-0.0282 z"
       style="fill:#3a3a3a" />
    <path
       id="path3392"
       d="m 402.3967,304.06202 c 1.25139,-1.01331 0.72039,-4.18407 -1.10049,-6.57135 -2.42694,-3.18191 -8.6334,-4.97836 -13.80864,-3.9969 -3.08958,0.58593 -4.96497,1.52674 -6.90261,3.46278 -1.44153,1.44036 -1.95165,2.19857 -2.325,3.45571 -0.62895,2.11789 -0.6033,2.87655 0.12174,3.60159 0.57888,0.57889 0.99999,0.6 11.96676,0.6 10.58904,0 11.41341,-0.0378 12.04824,-0.55183 z"
       style="fill:#ffffff" />
    <path
       id="path3390"
       d="m 428.1817,338.6961 c -5.06364,-1.12773 -8.20074,-4.70886 -8.99184,-10.26459 -0.2367,-1.66251 -0.31047,-11.43654 -0.24765,-32.81766 0.0879,-29.90319 0.10035,-30.46886 0.69453,-31.5 0.38382,-0.66609 1.15161,-1.32422 2.1,-1.8 1.33521,-0.66986 1.86363,-0.75 4.94496,-0.75 3.80244,0 4.85757,0.35332 6.11865,2.04891 l 0.63135,0.8489 0,31.19949 c 0,35.78728 -0.34002,32.15992 2.98554,31.84939 3.49368,-0.32625 5.05269,1.1304 5.05269,4.72095 0,2.56083 -0.6993,4.00617 -2.54394,5.25786 -2.27034,1.54062 -6.90693,2.06136 -10.74429,1.20675 z"
       style="fill:#3a3a3a" />
    <path
       id="path3388"
       d="m 453.13459,338.81253 c -4.60044,-0.97515 -7.69287,-3.95148 -8.89302,-8.55918 -0.6777,-2.6019 -0.69714,-64.51048 -0.0207,-65.81866 1.15563,-2.23475 3.85413,-3.21085 8.13936,-2.94416 3.79758,0.23633 5.26146,1.1825 5.84454,3.77755 0.14937,0.66488 0.14976,13.91575 0,30.81916 -0.16587,18.83386 -0.15633,29.92855 0.0261,30.40861 0.4128,1.08573 0.70527,1.18188 3.07407,1.01046 1.89045,-0.1368 2.24196,-0.0746 3.17574,0.56223 2.40297,1.63878 2.38089,6.6309 -0.0392,8.85567 -1.48338,1.36365 -3.46068,1.96053 -6.84165,2.06517 -1.74306,0.054 -3.75291,-0.0255 -4.46631,-0.17685 z"
       style="fill:#3a3a3a" />
    <path
       id="path3386"
       d="m 487.48516,338.78613 c -12.67407,-1.33845 -21.17301,-10.05129 -23.01096,-23.59011 -0.51531,-3.7959 -0.22863,-10.55859 0.58617,-13.82763 1.82862,-7.33644 6.34965,-13.10529 12.70248,-16.20834 5.20422,-2.542 10.60476,-3.42314 17.26899,-2.81758 14.53926,1.32115 22.31532,9.42062 21.90438,22.81536 -0.12807,4.1737 -0.64539,5.50507 -2.51652,6.47608 -1.1376,0.59037 -1.68732,0.60921 -18.07923,0.61935 -19.73028,0.0123 -17.91504,-0.35103 -17.66505,3.53526 0.34446,5.35581 3.82938,9.44745 9.28305,10.8993 2.07132,0.55143 6.56016,0.53976 8.71935,-0.0225 2.73552,-0.71253 4.06113,-1.55337 7.11762,-4.51476 3.01443,-2.92068 3.97596,-3.43161 6.46407,-3.435 0.70629,0 1.78269,0.29175 2.53419,0.68913 4.52832,2.39463 3.072,9.7635 -2.80221,14.17923 -4.03308,3.03174 -8.75553,4.67454 -15.03564,5.23053 -3.69588,0.32721 -4.12056,0.32559 -7.47069,-0.0282 z"
       style="fill:#3a3a3a" />
    <path
       id="path3384"
       d="m 503.4967,304.06202 c 1.25139,-1.01331 0.72039,-4.18407 -1.10049,-6.57135 -2.42694,-3.18191 -8.6334,-4.97836 -13.80864,-3.9969 -3.08958,0.58593 -4.96497,1.52674 -6.90261,3.46278 -1.44153,1.44036 -1.95165,2.19857 -2.325,3.45571 -0.62895,2.11789 -0.6033,2.87655 0.12174,3.60159 0.57888,0.57889 0.99999,0.6 11.96676,0.6 10.58904,0 11.41341,-0.0378 12.04824,-0.55183 z"
       style="fill:#ffffff" />
    <path
       id="path3382"
       d="m 537.8317,338.77563 c -3.04902,-0.38085 -7.14054,-1.6191 -9.57573,-2.89797 -4.43112,-2.3271 -7.86447,-6.62559 -8.1939,-10.25859 -0.33165,-3.65727 0.82899,-5.70015 3.5727,-6.28857 3.02238,-0.64818 4.35459,-0.0616 8.21697,3.61785 4.38171,4.17423 7.22658,5.20815 13.80171,5.016 3.67725,-0.10746 4.06935,-0.177 5.68194,-1.00797 2.91666,-1.50291 3.74175,-4.2018 1.91916,-6.27762 -1.18197,-1.34619 -3.80448,-2.20008 -10.17285,-3.31224 -7.35723,-1.28487 -10.67106,-2.1534 -13.71177,-3.59382 -5.94975,-2.81841 -8.78823,-7.17703 -8.78823,-13.4947 0,-6.72185 3.30774,-11.87999 9.6,-14.97035 4.27968,-2.10191 6.71553,-2.64496 12.63366,-2.8166 5.67309,-0.16454 9.05736,0.18679 12.67569,1.31589 6.90162,2.15363 11.02833,6.50998 11.46873,12.10691 0.15744,2.00098 0.097,2.3986 -0.54582,3.59264 -1.05141,1.95288 -2.89662,2.83949 -5.9307,2.84967 -2.01546,0.007 -2.44809,-0.094 -3.55914,-0.82897 -0.69564,-0.46016 -1.72317,-1.55324 -2.28345,-2.42907 -1.62804,-2.54505 -3.77796,-4.28165 -6.2184,-5.02291 -3.00219,-0.91189 -8.03451,-0.72315 -10.46772,0.39259 -2.10258,0.96412 -3.03735,2.2102 -3.20877,4.27741 -0.35931,4.33277 2.2008,5.88884 13.28592,8.07535 6.74559,1.33054 10.1262,2.30028 13.22538,3.79368 4.58307,2.20845 6.76101,4.93629 7.39074,9.25671 1.19112,8.17233 -3.72585,14.8338 -13.07202,17.70981 -4.31013,1.32633 -12.35481,1.86807 -17.7441,1.19487 z"
       style="fill:#3a3a3a" />
    <path
       id="path3380"
       d="m 316.77547,337.95552 c -1.42809,-0.16581 -1.89615,-0.36657 -2.50509,-1.07448 -0.62451,-0.72603 -0.7176,-1.06581 -0.56082,-2.04642 0.28077,-1.75578 1.03893,-3.04359 4.57521,-7.77159 5.45916,-7.29891 9.40119,-12.8775 10.16565,-14.38614 0.9141,-1.8039 0.94698,-3.61947 0.0944,-5.21027 -0.35031,-0.65358 -2.87655,-4.43158 -5.61384,-8.39555 -2.73732,-3.96397 -5.6421,-8.17636 -6.45507,-9.36086 -1.78155,-2.59568 -2.16846,-4.54473 -1.15131,-5.79951 0.60297,-0.7438 0.6267,-0.74685 5.80629,-0.74685 5.97663,0 6.50139,0.15607 8.13012,2.41789 0.53388,0.74142 2.65821,4.60443 4.72071,8.58445 2.0625,3.98002 4.12941,7.64444 4.59312,8.14315 l 0.84312,0.90674 0.86664,-0.87611 c 0.47667,-0.48187 2.77764,-4.45362 5.11323,-8.82612 2.33559,-4.3725 4.46838,-8.20007 4.73952,-8.50571 1.2237,-1.37949 2.02359,-1.54429 7.4952,-1.54429 5.17104,0 5.20431,0.004 5.8026,0.7423 0.73053,0.90119 0.56592,2.55293 -0.41796,4.19385 -0.63318,1.05598 -8.08305,12.00995 -11.79807,17.34733 -2.22942,3.20302 -2.36145,3.92071 -1.14414,6.21892 1.28838,2.4324 6.47268,9.98253 10.93056,15.91872 4.48827,5.97669 5.21655,7.41528 4.44867,8.78766 -0.75267,1.34514 -1.96908,1.56891 -7.45734,1.37187 -4.98846,-0.17907 -6.01107,-0.40011 -6.93699,-1.4994 -0.2355,-0.27957 -2.73774,-4.37223 -5.56056,-9.09477 -5.07753,-8.49465 -5.14308,-8.58648 -6.1287,-8.58648 -1.08864,0 -0.2307,-1.31316 -9.95409,15.23571 -2.1459,3.65226 -2.64081,3.92448 -7.27293,4.00053 -1.98654,0.0326 -4.40217,-0.0324 -5.36811,-0.14457 z"
       style="fill:#3a3a3a" />
    <path
       id="path3378"
       d="m 226.03236,337.48608 c -1.50248,-0.48948 -2.32355,-1.15623 -2.97484,-2.41569 -0.40951,-0.79188 -0.44485,-3.62298 -0.30717,-24.60072 0.17233,-26.25534 0.10526,-25.40399 2.08272,-26.43832 1.41183,-0.73847 6.29951,-0.75294 7.67081,-0.0227 1.39582,0.7433 1.83551,1.58803 2.47244,4.75014 0.31076,1.54279 0.65859,3.04795 0.77295,3.3448 0.33014,0.85695 1.09361,0.47054 2.22975,-1.12852 2.00248,-2.81842 4.44963,-5.15272 6.41732,-6.12141 3.2723,-1.61095 7.91412,-1.89374 10.38536,-0.6327 1.57656,0.80449 2.19272,2.11014 2.3425,4.96372 0.29362,5.59422 -1.63145,7.92255 -6.55447,7.92751 -4.77507,0.005 -9.03201,2.39047 -10.89386,6.10511 -1.71956,3.43075 -1.7863,4.05342 -1.97232,18.40026 -0.16683,12.86709 -0.19026,13.27839 -0.8032,14.1 -1.22223,1.63833 -2.29708,2.00916 -6.10019,2.10471 -2.3858,0.0599 -3.87404,-0.045 -4.7678,-0.33618 z"
       style="fill:#3a3a3a" />
    <path
       id="path3376"
       d="m 468.07252,267.27059 c -0.74754,-0.24008 -1.76004,-0.85509 -2.25,-1.36669 l -0.89082,-0.93017 0,-33.20494 c 0,-35.92117 -0.0625,-34.53276 1.60533,-35.66531 0.65793,-0.44676 1.42602,-0.53963 4.46334,-0.53963 l 3.66864,0 0.9078,0.90723 c 0.63795,0.63754 1.19721,1.79687 1.88136,3.9 0.72495,2.2286 1.11633,3.01922 1.53273,3.09635 0.38607,0.0715 1.45422,-0.82164 3.45,-2.88486 4.35417,-4.50124 7.49175,-5.80347 13.9908,-5.80675 13.33017,-0.007 21.5865,8.89497 22.99383,24.79127 1.53075,17.29028 -6.95679,30.1724 -21.07209,31.98262 -6.08922,0.78091 -11.4792,-0.75169 -16.11441,-4.58201 -1.5984,-1.32084 -2.03373,-1.41592 -2.32212,-0.50721 -0.11289,0.35565 -0.15573,4.59727 -0.0952,9.42583 0.10707,8.54369 0.0931,8.80196 -0.52134,9.62836 -1.23606,1.66246 -2.29014,2.01791 -6.25494,2.10921 -2.54124,0.0585 -4.01709,-0.0463 -4.97289,-0.3533 z"
       style="fill:#3a3a3a" />
    <path
       id="path3374"
       d="m 496.5817,238.99603 c 4.89039,-1.65458 7.2297,-6.16069 7.67409,-14.78218 0.48138,-9.3396 -3.29535,-15.19769 -10.4514,-16.21111 -8.262,-1.17004 -14.16795,5.94083 -13.60527,16.38098 0.4806,8.91734 3.79269,14.0832 9.70203,15.13224 1.79859,0.31928 4.91757,0.0765 6.68055,-0.51993 z"
       style="fill:#ffffff" />
    <path
       id="path3372"
       d="m 260.04094,251.50017 c -5.82962,-0.91532 -9.96698,-3.74494 -12.07345,-8.25728 -0.74109,-1.58753 -0.83078,-2.1187 -0.83314,-4.93429 -0.002,-2.97221 0.0554,-3.27317 0.99751,-5.18791 2.19742,-4.46591 7.00649,-6.66574 17.14984,-7.84489 13.15857,-1.52966 14.6846,-1.87596 16.56851,-3.75987 l 1.13149,-1.13149 0,-3.13085 c 0,-4.28921 -0.50851,-5.89001 -2.49979,-7.86942 -1.96062,-1.94891 -3.74489,-2.57032 -7.38021,-2.57032 -5.38935,0 -8.62639,1.89813 -10.02873,5.88063 -0.23834,0.67685 -0.60222,2.27752 -0.80863,3.55704 -0.46443,2.87899 -1.20019,3.86612 -3.3596,4.50739 -1.69626,0.50374 -5.42868,0.59007 -7.24982,0.1677 -1.61903,-0.3755 -2.60313,-1.16287 -3.39822,-2.71889 -0.5542,-1.0846 -0.6742,-1.80623 -0.67056,-4.03244 0.009,-5.47059 1.52054,-9.2017 5.23655,-12.92549 3.66535,-3.67304 7.87775,-5.54759 14.48052,-6.44395 3.8908,-0.5282 11.74945,-0.22718 14.96258,0.57312 7.86569,1.95913 12.43271,6.3633 14.59642,14.07593 0.6247,2.22675 0.6511,2.93917 0.74156,20.00896 0.0873,16.47301 0.0568,17.77279 -0.43914,18.75 -0.7233,1.42509 -2.26571,2.12129 -5.13544,2.31798 -1.93944,0.13293 -2.57134,0.0553 -3.73306,-0.45857 -1.80444,-0.79819 -2.42,-1.84162 -3.07458,-5.21171 -0.32959,-1.69685 -0.68559,-2.76083 -0.95884,-2.86569 -0.27951,-0.10726 -1.23872,0.70708 -2.68763,2.28171 -3.41961,3.7163 -6.46085,5.55843 -10.95357,6.63478 -2.9275,0.70136 -8.04623,0.98574 -10.58057,0.58782 z"
       style="fill:#3a3a3a" />
    <path
       id="path3370"
       d="m 272.31924,240.85449 c 5.4524,-1.42017 9.95314,-6.20475 10.30301,-10.95276 0.17105,-2.32138 -0.229,-2.59195 -2.35526,-1.59294 -3.26459,1.53383 -5.62493,2.28502 -10.27016,3.26852 -6.62161,1.40195 -8.00301,2.2793 -8.00873,5.08654 -0.007,3.67766 4.80538,5.62992 10.33114,4.19064 z"
       style="fill:#ffffff" />
    <path
       id="path3368"
       d="m 376.8259,251.19045 c -3.18117,-0.46665 -5.48568,-1.19995 -8.6442,-2.75058 -2.72385,-1.33723 -3.51945,-1.91373 -5.88084,-4.26123 -3.84804,-3.82544 -5.86944,-7.53849 -7.38519,-13.56574 -0.5775,-2.2964 -0.66477,-3.42782 -0.65559,-8.49905 0.0126,-6.91145 0.40005,-8.79639 2.81655,-13.69894 2.59623,-5.2671 7.39374,-9.65933 12.84249,-11.75758 6.23841,-2.40234 14.94672,-2.76852 21.7251,-0.91354 7.41402,2.02893 12.64566,7.00704 14.17272,13.48593 0.57948,2.45847 0.60129,6.05151 0.0433,7.12403 -1.09233,2.09944 -3.18423,3.1088 -6.47274,3.12316 -1.74477,0.008 -2.57892,-0.13921 -3.52086,-0.61974 -1.53975,-0.78553 -2.12097,-1.62687 -3.34584,-4.84332 -1.75341,-4.60431 -3.45045,-6.1924 -7.40865,-6.93302 -2.53851,-0.47497 -6.80652,-0.18039 -8.89089,0.61365 -4.89171,1.86351 -7.69791,7.33427 -7.72905,15.06798 -0.0276,6.88478 2.54418,12.48315 6.90999,15.04117 3.90507,2.28808 10.81533,2.29771 14.99856,0.0209 0.77766,-0.42326 2.47467,-1.84999 3.77115,-3.17053 2.78538,-2.83709 3.53766,-3.27429 5.94627,-3.45573 5.10294,-0.38442 7.407,4.43832 4.72407,9.88812 -1.86303,3.78433 -6.36474,7.19344 -11.76051,8.90613 -4.18698,1.32901 -11.62548,1.87716 -16.2558,1.19792 z"
       style="fill:#3a3a3a" />
    <path
       id="path3366"
       d="m 429.85711,251.20145 c -14.30604,-2.24397 -22.67541,-12.52681 -22.67541,-27.85972 0,-6.34054 0.94674,-11.29075 2.96019,-15.47783 4.01406,-8.34753 11.24757,-12.60822 22.49436,-13.24968 6.07488,-0.34648 12.10212,0.76153 16.84467,3.09662 2.36988,1.16685 3.2802,1.83612 5.41068,3.97797 2.0898,2.10091 2.82345,3.09989 3.98415,5.42509 0.78249,1.5675 1.77996,4.2 2.21661,5.85 0.73833,2.78992 0.79473,3.45167 0.80577,9.45 0.0105,5.76496 -0.0587,6.70198 -0.65217,8.82253 -2.83785,10.13934 -9.41982,16.92621 -18.81426,19.39988 -2.74731,0.7234 -9.60162,1.03145 -12.57459,0.56513 z"
       style="fill:#3a3a3a" />
    <path
       id="path3364"
       d="m 438.05572,238.75153 c 6.37101,-1.50174 10.22745,-7.16258 10.21029,-14.98762 -0.0141,-6.44358 -2.15229,-11.57033 -5.78091,-13.86097 -3.81258,-2.40679 -9.79278,-2.71044 -13.8681,-0.70418 -4.59483,2.26203 -7.04124,7.46731 -7.03086,14.95977 0.005,3.7735 0.55017,6.37338 1.84518,8.80309 2.61693,4.90984 8.49132,7.23556 14.6244,5.78991 z"
       style="fill:#ffffff" />
    <path
       id="path3362"
       d="m 599.4259,251.20866 c -4.70421,-0.74011 -9.95652,-2.93673 -13.21074,-5.52499 -3.69843,-2.94156 -6.93459,-8.01123 -8.30301,-13.00724 -1.89324,-6.9122 -1.3884,-16.96705 1.1733,-23.36834 1.97508,-4.93537 5.66574,-9.11929 10.06104,-11.40574 9.20079,-4.78624 23.70561,-4.38273 31.85031,0.88605 6.2912,4.06976 9.60965,10.29284 10.59737,19.87324 1.03383,10.02728 -1.55049,18.63056 -7.45184,24.80743 -3.64659,3.81685 -7.62681,6.10554 -12.69762,7.30132 -2.54658,0.60054 -9.39918,0.85041 -12.01881,0.43827 z"
       style="fill:#3a3a3a" />
    <path
       id="path3360"
       d="m 607.01446,238.9077 c 5.1204,-0.97107 8.89416,-4.69723 10.32396,-10.19379 0.71199,-2.73698 0.48441,-9.21008 -0.42342,-12.04498 -1.66701,-5.2056 -5.07156,-7.9372 -10.80408,-8.66857 -7.13475,-0.91027 -12.31932,2.64455 -14.26728,9.78244 -0.73539,2.69463 -0.92124,8.21958 -0.36426,10.82833 0.89916,4.2113 3.18222,7.56205 6.20232,9.10279 2.53617,1.29385 6.27996,1.77273 9.33276,1.19378 z"
       style="fill:#ffffff" />
    <path
       id="path3358"
       d="m 708.60367,251.03916 c -8.69664,-1.57236 -15.20058,-6.59262 -18.68508,-14.42272 -2.14902,-4.82904 -3.20112,-12.07526 -2.59518,-17.87388 0.45057,-4.31153 1.24356,-7.18943 2.91894,-10.59336 4.94001,-10.03659 15.4536,-14.84061 29.13903,-13.31459 8.97123,1.00035 15.51843,5.06134 18.58773,11.5293 1.66116,3.5006 2.05059,5.46007 2.05695,10.35 0.006,4.9592 -0.39078,6.24324 -2.27361,7.35 -0.98004,0.57607 -1.70625,0.60598 -18.20688,0.75 -14.83902,0.12952 -17.22495,0.21146 -17.47041,0.6 -0.483,0.7646 -0.32337,3.74194 0.30792,5.7434 1.07724,3.41527 3.67293,6.11653 7.19862,7.49143 1.14264,0.44558 2.58495,0.68915 4.6905,0.7921 5.77419,0.28231 9.22032,-1.08826 12.68487,-5.04495 3.25632,-3.71885 7.69779,-4.40893 10.2588,-1.59393 3.6738,4.03814 -0.10377,11.79093 -7.59792,15.59334 -5.22864,2.65294 -14.50734,3.82032 -21.01428,2.64386 z"
       style="fill:#3a3a3a" />
    <path
       id="path3356"
       d="m 726.85612,216.28157 c 0.99765,-1.36512 0.13575,-4.5241 -1.83132,-6.71196 -4.60731,-5.12443 -15.78918,-5.05013 -20.52939,0.13642 -2.22204,2.43124 -3.04074,5.48086 -1.80354,6.71806 0.59553,0.59553 0.88755,0.60812 12.17442,0.525 11.04837,-0.0814 11.58321,-0.11115 11.98983,-0.66752 z"
       style="fill:#ffffff" />
    <path
       id="path3354"
       d="m 761.57347,251.06827 c -8.40927,-1.52541 -14.49867,-5.92289 -16.14795,-11.66131 -0.87801,-3.05487 -0.0596,-6.20635 1.86792,-7.19301 1.33485,-0.68329 3.15771,-0.86672 4.71534,-0.47451 1.16424,0.29315 1.98174,0.87455 4.37301,3.11004 4.69968,4.39351 7.55247,5.55185 13.69332,5.56 6.1848,0.008 9.11406,-1.56299 9.09993,-4.88101 -0.0138,-3.26861 -1.60242,-4.00764 -13.04334,-6.06829 -3.3,-0.59438 -7.215,-1.48484 -8.7,-1.9788 -7.03584,-2.34039 -10.79655,-6.41684 -11.56365,-12.5345 -1.38642,-11.05709 6.48462,-18.90934 20.14353,-20.09537 3.54882,-0.30815 8.97204,-0.005 12.15474,0.67848 7.86063,1.68908 12.86583,5.89597 13.9383,11.71525 0.88176,4.78421 -1.12953,7.32012 -6.02292,7.59401 -3.12225,0.17475 -4.40793,-0.52831 -6.47556,-3.54109 -2.48919,-3.62702 -4.91334,-4.96401 -9.57444,-5.28054 -2.91489,-0.19795 -6.35862,0.45755 -7.95546,1.51429 -1.51842,1.00484 -2.1972,2.54009 -2.02755,4.58583 0.31473,3.79507 2.65284,5.00644 14.09079,7.30041 9.50028,1.90535 13.67385,3.53466 16.68195,6.5124 1.91952,1.90017 2.66088,3.47684 3.10224,6.59777 1.36356,9.64197 -5.82846,16.90527 -18.48204,18.66522 -3.10299,0.43159 -11.20158,0.35843 -13.86816,-0.12527 z"
       style="fill:#3a3a3a" />
    <path
       id="path3352"
       d="m 218.1817,250.31738 c -0.9075,-0.12829 -1.9875,-0.37046 -2.4,-0.53817 -1.22771,-0.49915 -2.34479,-1.92263 -2.67772,-3.41221 -0.21482,-0.9611 -0.22501,-8.55699 -0.0327,-24.3477 0.31086,-25.52255 0.24117,-24.73105 2.25144,-25.57099 1.57103,-0.65642 4.29117,-0.8533 6.22956,-0.4509 2.63397,0.54682 3.41037,1.71637 4.13237,6.22494 0.55353,3.4565 1.15526,3.53009 3.30067,0.40364 3.19016,-4.64894 6.9038,-6.71109 12.14636,-6.74475 3.40895,-0.0219 4.7673,0.57621 5.79145,2.55004 0.61227,1.18003 0.68055,1.67614 0.59626,4.33262 -0.16334,5.14847 -1.26193,6.35436 -6.19478,6.79984 -5.39812,0.48749 -8.40602,1.8826 -10.3806,4.81468 -2.45213,3.64121 -2.86233,6.69544 -2.86233,21.31224 0,11.85732 -0.0743,12.50907 -1.54331,13.54147 -1.40299,0.986 -5.39313,1.50418 -8.35669,1.08525 z"
       style="fill:#3a3a3a" />
    <path
       id="path3350"
       d="m 564.13681,250.29708 c -2.13753,-0.28333 -3.4488,-0.93788 -4.37376,-2.18326 -0.62349,-0.8395 -0.63015,-1.01884 -0.53394,-14.4 0.0628,-8.73088 -0.021,-14.48951 -0.23556,-16.19183 -0.84015,-6.66688 -3.59082,-9.50808 -9.20505,-9.50808 -3.89871,0 -7.10922,2.09095 -8.90226,5.7979 -1.58142,3.26943 -1.69365,4.53549 -1.69932,19.17103 -0.006,15.32652 -0.007,15.33669 -2.21808,16.51929 -1.10034,0.5886 -1.68498,0.66178 -5.28714,0.66178 -4.49823,0 -5.81382,-0.38303 -7.03065,-2.04693 -0.61551,-0.84168 -0.61983,-1.04677 -0.69834,-33.07662 -0.0434,-17.72633 0.0366,-33.71641 0.17781,-35.53349 0.22221,-2.85889 0.35217,-3.40533 0.9651,-4.05777 1.12629,-1.1989 3.49971,-1.73124 7.0149,-1.57338 3.26235,0.1465 5.0058,0.71741 5.65656,1.85229 0.26337,0.45935 0.40626,4.15096 0.51462,13.29628 0.11052,9.32871 0.24546,12.75575 0.51276,13.02277 0.28356,0.28327 0.87489,-0.16866 2.70852,-2.07003 2.64012,-2.73767 4.8117,-3.96274 8.355,-4.71338 2.66037,-0.56361 7.48533,-0.56286 10.17372,10e-4 5.94828,1.24885 10.57203,5.45684 12.57933,11.4482 1.47216,4.3941 1.52067,5.14061 1.52067,23.40306 0,16.82207 -0.012,17.1689 -0.6156,18 -1.3611,1.87368 -5.11332,2.74603 -9.37929,2.18059 z"
       style="fill:#3a3a3a" />
    <path
       id="path3348"
       d="m 162.47963,250.02087 c -1.86494,-0.39896 -3.02934,-1.10414 -3.57933,-2.1677 -0.44955,-0.86933 -0.4643,-2.37509 -0.17267,-17.61992 0.21315,-11.14141 0.22467,-21.93322 0.0348,-32.54244 -0.26613,-14.86658 -0.25075,-15.94137 0.24259,-16.95 0.2897,-0.5923 0.93173,-1.27084 1.42673,-1.50788 1.11099,-0.53201 0.94003,-0.53065 25.95,-0.20688 15.74882,0.20388 20.46912,0.35152 21.23579,0.66421 1.29507,0.52818 1.89442,1.98445 2.08815,5.07364 0.2131,3.39796 -0.32061,5.70667 -1.61948,7.00554 l -1.02613,1.02613 -15.4222,-0.22143 -15.4222,-0.22144 -0.76697,0.76697 -0.76696,0.76696 0,8.24952 c 0,5.53002 0.11259,8.49665 0.34156,8.99918 0.74937,1.64469 1.07598,1.67853 16.20377,1.67904 15.56752,6e-4 15.47474,-0.0112 16.5292,2.09953 0.71118,1.42363 0.73249,5.92305 0.035,7.39288 -0.99227,2.09106 -0.63573,2.04744 -17.50954,2.14227 -13.6931,0.077 -15.18607,0.13296 -15.525,0.58234 -0.28401,0.37655 -0.375,3.14387 -0.375,11.40475 0,12.15514 -0.004,12.18442 -1.98485,13.12419 -1.28666,0.61056 -7.80169,0.91311 -9.91723,0.46054 z"
       style="fill:#3a3a3a" />
    <path
       id="path3346"
       d="m 304.9642,250.03647 c -0.53211,-0.13402 -1.31964,-0.47441 -1.75005,-0.75643 -1.63347,-1.07029 -1.63506,-1.08991 -1.60173,-19.73146 0.0168,-9.45155 0.11817,-20.38853 0.225,-24.3044 l 0.19428,-7.11977 0.92394,-0.9234 c 1.24614,-1.24543 4.02348,-1.75878 6.77871,-1.25294 2.52552,0.46365 3.24714,1.26963 4.11402,4.59496 1.17312,4.49991 1.32444,4.6097 3.03333,2.20093 1.73664,-2.44787 4.82214,-5.35337 6.6,-6.21499 2.81628,-1.36489 5.18295,-1.83598 9.3,-1.85118 4.29597,-0.0159 6.06843,0.33905 9.3,1.86221 4.99437,2.35405 8.48979,7.62692 9.59487,14.47395 0.17496,1.08402 0.3969,9.6106 0.4998,19.2 l 0.18507,17.25 -0.69024,0.86135 c -1.05087,1.31138 -2.46258,1.75102 -6.1395,1.91196 -4.0866,0.17887 -6.60837,-0.24478 -7.64616,-1.28454 l -0.75384,-0.75529 0,-15.81674 c 0,-16.8711 -0.0535,-17.59633 -1.50933,-20.46674 -1.47657,-2.91126 -3.96465,-4.28073 -7.82154,-4.3051 -2.16447,-0.0137 -2.66592,0.095 -4.41777,0.95743 -2.23005,1.09785 -3.60036,2.52331 -4.81986,5.01386 -1.5615,3.18902 -1.67061,4.4628 -1.67628,19.56844 -0.006,15.36143 -0.0183,15.47305 -1.85658,16.46368 -0.79776,0.42992 -1.81329,0.55122 -5.04864,0.60302 -2.2275,0.0357 -4.48536,-0.0448 -5.0175,-0.17881 z"
       style="fill:#3a3a3a" />
    <path
       id="path3344"
       d="m 637.15665,249.88551 c -0.64626,-0.23939 -1.52376,-0.78421 -1.95,-1.2107 l -0.77496,-0.77544 0,-24.51771 c 0,-23.1252 0.031,-24.57443 0.54492,-25.51635 0.79326,-1.4537 2.22021,-1.97113 5.45508,-1.97806 4.23402,-0.009 4.94448,0.57815 6.15219,5.08487 0.73206,2.7318 1.10616,3.52141 1.59312,3.36264 0.19509,-0.0636 0.96156,-0.98242 1.70328,-2.04181 2.62911,-3.75513 4.89279,-5.49031 8.85141,-6.78483 2.09649,-0.68558 2.93115,-0.78859 6.6,-0.81451 3.61494,-0.0255 4.51344,0.0681 6.45,0.672 4.94097,1.54085 8.13213,4.26747 10.31139,8.81031 2.14305,4.46735 2.31112,5.58215 2.59111,17.18803 0.13536,5.61 0.25716,13.71 0.27069,18 0.0225,7.12905 -0.024,7.87948 -0.53889,8.72401 -0.8968,1.47062 -2.38696,1.99051 -6.16861,2.15208 -4.42605,0.1891 -6.65073,-0.22764 -7.7649,-1.45458 l -0.84918,-0.93515 0.0827,-15.34318 c 0.0862,-15.99656 0.0105,-17.23884 -1.22367,-20.11843 -1.1637,-2.71475 -2.98341,-4.07141 -6.2574,-4.6651 -5.85762,-1.06219 -10.57602,2.48019 -12.27114,9.21267 -0.44427,1.76445 -0.51195,3.87905 -0.52131,16.28905 -0.0117,15.69025 0.0502,15.14688 -1.87275,16.40682 -1.10661,0.72509 -8.64444,0.9085 -10.41306,0.25337 z"
       style="fill:#3a3a3a" />
    <path
       id="path3342"
       d="m 815.3317,219.30889 c -3.48687,-0.90504 -5.71596,-2.61267 -10.05966,-7.70629 -3.03534,-3.55936 -5.44248,-5.69738 -7.71534,-6.85274 -0.70125,-0.35646 -1.275,-0.83416 -1.275,-1.06155 0,-0.22739 -0.40476,-1.18292 -0.89949,-2.12339 -0.4947,-0.94047 -0.82716,-1.82696 -0.73878,-1.96997 0.30963,-0.50099 5.97237,-2.11657 9.56334,-2.72844 4.37649,-0.7457 11.41272,-0.65162 14.40483,0.19261 4.64943,1.31185 7.92261,3.80382 9.54219,7.26476 0.80643,1.7233 0.94551,2.36713 0.95658,4.42827 0.0111,2.09266 -0.11106,2.67471 -0.9243,4.3988 -1.25034,2.65068 -2.76648,4.25904 -5.09571,5.40572 -2.24568,1.10555 -5.26833,1.39861 -7.75866,0.75222 z"
       style="fill:#3a3a3a" />
    <path
       id="path3340"
       d="m 789.51775,192.48885 c 0.11061,-0.45375 0.87201,-2.175 1.692,-3.825 3.70947,-7.46426 10.38168,-14.62733 16.49793,-17.7117 7.35564,-3.70938 14.62155,-1.94746 17.71938,4.29679 0.60729,1.2241 0.70212,1.85994 0.70329,4.71491 0,3.09756 -0.0532,3.39843 -0.8874,4.9045 -1.70832,3.08418 -5.02344,5.34972 -8.84091,6.04186 -2.10183,0.38108 -3.42525,0.29347 -9.77034,-0.64686 -6.62751,-0.98217 -11.71893,-0.28083 -15.53541,2.14 -0.78948,0.50077 -1.51287,0.9105 -1.60752,0.9105 -0.0947,0 -0.0816,-0.37125 0.0291,-0.825 z"
       style="fill:#3a3a3a" />
    <path
       id="path4140"
       d="m 782.74012,189.26385 c -2.46243,-4.06044 -3.95172,-7.71484 -5.2572,-12.9 -1.03722,-4.11964 -1.31604,-11.3056 -0.56898,-14.6635 1.06134,-4.77054 3.65355,-8.32962 7.30233,-10.02599 1.42836,-0.66406 2.1432,-0.79861 4.27173,-0.80402 2.28642,-0.006 2.76603,0.0968 4.54251,0.97131 2.44929,1.20578 4.30038,3.00447 5.3229,5.1722 0.68433,1.45083 0.77829,2.03221 0.77829,4.81635 0,3.06552 -0.0365,3.24026 -1.14777,5.48793 -0.94752,1.91649 -1.86621,3.0653 -5.26491,6.58366 -4.46016,4.61715 -5.64156,6.15239 -6.93036,9.00583 -0.78801,1.74473 -1.69005,5.23619 -1.8747,7.25623 -0.0795,0.8698 -0.11889,0.8396 -1.17384,-0.9 z"
       style="fill:#3a3a3a" />
  </g>
</svg>
