<?xml version="1.0" encoding="UTF-8" standalone="no"?>
<!-- Created with Inkscape (http://www.inkscape.org/) -->

<svg
   xmlns:dc="http://purl.org/dc/elements/1.1/"
   xmlns:cc="http://creativecommons.org/ns#"
   xmlns:rdf="http://www.w3.org/1999/02/22-rdf-syntax-ns#"
   xmlns:svg="http://www.w3.org/2000/svg"
   xmlns="http://www.w3.org/2000/svg"
   xmlns:sodipodi="http://sodipodi.sourceforge.net/DTD/sodipodi-0.dtd"
   xmlns:inkscape="http://www.inkscape.org/namespaces/inkscape"
   id="svg2"
   version="1.1"
   inkscape:version="0.91 r"
   xml:space="preserve"
   width="2835.2876"
   height="1588.8"
   viewBox="0 0 2835.2876 1588.8"
   sodipodi:docname="WBI.svg"><metadata
     id="metadata8"><rdf:RDF><cc:Work
         rdf:about=""><dc:format>image/svg+xml</dc:format><dc:type
           rdf:resource="http://purl.org/dc/dcmitype/StillImage" /><dc:title></dc:title></cc:Work></rdf:RDF></metadata><defs
     id="defs6" /><sodipodi:namedview
     pagecolor="#ffffff"
     bordercolor="#666666"
     borderopacity="1"
     objecttolerance="10"
     gridtolerance="10"
     guidetolerance="10"
     inkscape:pageopacity="0"
     inkscape:pageshadow="2"
     inkscape:window-width="859"
     inkscape:window-height="480"
     id="namedview4"
     showgrid="false"
     inkscape:zoom="0.14853977"
     inkscape:cx="1417.6438"
     inkscape:cy="794.40002"
     inkscape:window-x="0"
     inkscape:window-y="27"
     inkscape:window-maximized="0"
     inkscape:current-layer="g12" /><g
     id="g10"
     inkscape:groupmode="layer"
     inkscape:label="ink_ext_XXXXXX"
     transform="matrix(1.25,0,0,-1.25,0,1588.8)"><g
       id="g12"
       transform="scale(0.154669,0.154669)"><path
         d="m 5685.77,6076.32 c 0,-295.58 -239.72,-535.35 -535.36,-535.35 -295.65,0 -535.23,239.77 -535.23,535.35 0,295.72 239.58,535.24 535.23,535.24 295.64,0 535.36,-239.52 535.36,-535.24"
         style="fill:#060504;fill-opacity:1;fill-rule:nonzero;stroke:none"
         id="path14"
         inkscape:connector-curvature="0" /><path
         d="m 7292,6076.32 c 0,-295.58 -239.8,-535.35 -535.52,-535.35 -295.64,0 -535.31,239.77 -535.31,535.35 0,295.77 239.67,535.24 535.31,535.24 295.72,0 535.52,-239.47 535.52,-535.24"
         style="fill:#060504;fill-opacity:1;fill-rule:nonzero;stroke:none"
         id="path16"
         inkscape:connector-curvature="0" /><path
         d="m 6488.68,4470.12 c 0,-295.53 -239.46,-535.07 -535.16,-535.07 -295.84,0 -535.48,239.54 -535.48,535.07 0,295.7 239.64,535.52 535.48,535.52 295.7,0 535.16,-239.82 535.16,-535.52"
         style="fill:#060504;fill-opacity:1;fill-rule:nonzero;stroke:none"
         id="path18"
         inkscape:connector-curvature="0" /><path
         d="m 8095.07,4470.12 c 0,-295.53 -239.93,-535.4 -535.46,-535.4 -295.66,0 -535.4,239.87 -535.4,535.4 0,295.81 239.74,535.52 535.4,535.52 295.53,0 535.46,-239.71 535.46,-535.52"
         style="fill:#060504;fill-opacity:1;fill-rule:nonzero;stroke:none"
         id="path20"
         inkscape:connector-curvature="0" /><path
         d="m 8898.08,6076.32 c 0,-295.58 -239.81,-535.35 -535.34,-535.35 -295.79,0 -535.53,239.77 -535.53,535.35 0,295.72 239.74,535.24 535.53,535.24 295.53,0 535.34,-239.65 535.34,-535.24"
         style="fill:#060504;fill-opacity:1;fill-rule:nonzero;stroke:none"
         id="path22"
         inkscape:connector-curvature="0" /><path
         d="m 9165.68,7361.2 c -177.35,0 -321.2,143.78 -321.2,321.27 0,177.36 143.85,321.16 321.2,321.16 177.61,0 321.2,-143.8 321.2,-321.16 0,-177.49 -143.59,-321.27 -321.2,-321.27 z m 0,856.59 c -295.73,0 -535.53,-239.71 -535.53,-535.24 0,-295.68 239.8,-535.58 535.53,-535.58 295.53,0 535.46,239.9 535.46,535.58 0,295.53 -239.93,535.24 -535.46,535.24"
         style="fill:#060504;fill-opacity:1;fill-rule:nonzero;stroke:none"
         id="path24"
         inkscape:connector-curvature="0" /><path
         d="m 9968.62,5755 c -177.35,0 -321.14,143.83 -321.14,321.32 0,177.34 143.79,321.16 321.14,321.16 177.58,0 321.28,-143.82 321.28,-321.16 0,-177.49 -143.7,-321.32 -321.28,-321.32 z m 0,856.56 c -295.73,0 -535.53,-239.65 -535.53,-535.24 0,-295.69 239.8,-535.49 535.53,-535.49 295.58,0 535.48,239.8 535.48,535.49 0,295.59 -239.9,535.24 -535.48,535.24"
         style="fill:#060504;fill-opacity:1;fill-rule:nonzero;stroke:none"
         id="path26"
         inkscape:connector-curvature="0" /><path
         d="m 9165.68,4148.81 c -177.35,0 -321.27,143.83 -321.27,321.31 0,177.38 143.92,321.14 321.27,321.14 177.48,0 321.2,-143.76 321.2,-321.14 0,-177.48 -143.72,-321.31 -321.2,-321.31 z m 0,856.6 c -295.73,0 -535.59,-239.72 -535.59,-535.29 0,-295.66 239.86,-535.49 535.59,-535.49 295.47,0 535.4,239.83 535.4,535.49 0,295.57 -239.93,535.29 -535.4,535.29"
         style="fill:#060504;fill-opacity:1;fill-rule:nonzero;stroke:none"
         id="path28"
         inkscape:connector-curvature="0" /><path
         d="M 7.42188,2721.41 C 2.96875,2731.79 0,2745.16 0,2757.04 c 0,50.47 43.0547,89.08 93.5352,89.08 44.5348,0 78.6838,-28.21 90.5628,-66.81 l 239.027,-714.12 234.574,711.15 c 14.844,43.05 46.02,72.74 92.047,72.74 l 13.359,0 c 46.028,0 78.692,-29.69 92.055,-72.74 l 234.57,-711.15 239.03,715.6 c 13.36,37.12 44.54,65.33 89.08,65.33 48.99,0 90.57,-38.61 90.57,-87.6 0,-11.88 -4.46,-26.73 -8.91,-37.11 l -307.32,-861.1 c -16.34,-46.03 -50.49,-75.72 -95.03,-75.72 l -17.81,0 c -44.54,0 -77.2,28.21 -93.535,75.72 L 754.203,2538.8 522.598,1860.31 c -16.332,-47.51 -50.481,-75.72 -95.02,-75.72 l -17.816,0 c -44.539,0 -77.199,28.21 -95.02,75.72 L 7.42188,2721.41"
         style="fill:#050301;fill-opacity:1;fill-rule:nonzero;stroke:none"
         id="path30"
         inkscape:connector-curvature="0" /><path
         d="m 2088.59,2081.52 0,53.45 c -46.03,17.82 -106.9,31.18 -178.16,31.18 -115.8,0 -184.1,-48.99 -184.1,-130.65 l 0,-2.97 c 0,-75.72 66.81,-118.77 152.92,-118.77 118.77,0 209.34,68.29 209.34,167.76 z m -537.44,-56.41 0,2.97 c 0,169.24 132.13,252.39 323.65,252.39 87.59,0 149.95,-13.36 210.82,-32.67 l 0,19.31 c 0,111.34 -68.3,170.73 -194.49,170.73 -68.29,0 -124.72,-11.87 -173.7,-31.18 -10.4,-2.97 -19.31,-4.45 -28.22,-4.45 -41.57,0 -75.71,32.66 -75.71,74.23 0,32.66 22.27,60.87 49,71.27 74.22,28.2 149.94,46.02 252.38,46.02 117.29,0 204.88,-31.18 259.82,-87.6 57.89,-56.42 84.62,-139.55 84.62,-242 l 0,-386.01 c 0,-48.99 -38.6,-86.1 -87.6,-86.1 -51.96,0 -87.59,35.63 -87.59,75.71 l 0,29.7 c -53.45,-63.84 -135.1,-114.32 -255.36,-114.32 -146.98,0 -277.62,84.62 -277.62,242"
         style="fill:#050301;fill-opacity:1;fill-rule:nonzero;stroke:none"
         id="path32"
         inkscape:connector-curvature="0" /><path
         d="m 2484.98,2801.57 c 0,49 38.6,89.09 89.08,89.09 50.48,0 90.57,-40.09 90.57,-89.09 l 0,-920.47 c 0,-50.48 -40.09,-89.08 -90.57,-89.08 -48.99,0 -89.08,38.6 -89.08,89.08 l 0,920.47"
         style="fill:#050301;fill-opacity:1;fill-rule:nonzero;stroke:none"
         id="path34"
         inkscape:connector-curvature="0" /><path
         d="m 2909.59,2801.57 c 0,49 38.6,89.09 89.08,89.09 50.48,0 90.56,-40.09 90.56,-89.09 l 0,-920.47 c 0,-50.48 -40.08,-89.08 -90.56,-89.08 -48.99,0 -89.08,38.6 -89.08,89.08 l 0,920.47"
         style="fill:#050301;fill-opacity:1;fill-rule:nonzero;stroke:none"
         id="path36"
         inkscape:connector-curvature="0" /><path
         d="m 3936.96,2186.94 0,2.96 c 0,138.07 -99.46,252.39 -240.51,252.39 -144.01,0 -236.06,-112.83 -236.06,-249.42 l 0,-2.97 c 0,-136.58 99.47,-250.91 239.04,-250.91 145.49,0 237.53,112.84 237.53,247.95 z m -656.21,0 0,2.96 c 0,224.19 178.16,409.77 418.68,409.77 240.5,0 417.18,-182.62 417.18,-406.8 l 0,-2.97 c 0,-222.69 -178.16,-408.28 -420.16,-408.28 -239.02,0 -415.7,182.62 -415.7,405.32"
         style="fill:#050301;fill-opacity:1;fill-rule:nonzero;stroke:none"
         id="path38"
         inkscape:connector-curvature="0" /><path
         d="m 4299.22,2501.68 c 0,50.47 38.61,90.56 89.08,90.56 50.49,0 90.57,-40.09 90.57,-90.56 l 0,-38.6 c 50.47,72.75 123.22,136.59 244.97,136.59 176.66,0 279.11,-118.77 279.11,-299.9 l 0,-418.67 c 0,-50.48 -38.6,-89.08 -89.08,-89.08 -50.48,0 -90.56,38.6 -90.56,89.08 l 0,363.73 c 0,121.75 -60.87,191.53 -167.77,191.53 -103.92,0 -176.67,-72.75 -176.67,-194.49 l 0,-360.77 c 0,-50.48 -40.08,-89.08 -90.57,-89.08 -48.99,0 -89.08,38.6 -89.08,89.08 l 0,620.58"
         style="fill:#050301;fill-opacity:1;fill-rule:nonzero;stroke:none"
         id="path40"
         inkscape:connector-curvature="0" /><path
         d="m 5230.11,2501.68 c 0,50.47 38.59,90.56 89.07,90.56 50.48,0 90.57,-40.09 90.57,-90.56 l 0,-620.58 c 0,-50.48 -40.09,-89.08 -90.57,-89.08 -48.99,0 -89.07,38.6 -89.07,89.08 l 0,620.58 z m -13.37,292.47 c 0,53.45 44.54,87.6 102.44,87.6 57.9,0 102.44,-34.15 102.44,-87.6 l 0,-8.9 c 0,-53.46 -44.54,-89.08 -102.44,-89.08 -57.9,0 -102.44,35.62 -102.44,89.08 l 0,8.9"
         style="fill:#050301;fill-opacity:1;fill-rule:nonzero;stroke:none"
         id="path42"
         inkscape:connector-curvature="0" /><path
         d="m 6181.76,2246.32 c -11.88,115.8 -80.17,206.36 -198.94,206.36 -109.87,0 -187.07,-84.62 -203.4,-206.36 l 402.34,0 z m -178.16,-464.7 c -227.15,0 -402.34,164.8 -402.34,406.8 l 0,2.96 c 0,224.19 158.86,408.29 383.04,408.29 249.42,0 372.65,-204.88 372.65,-386.01 0,-50.48 -38.6,-86.12 -84.63,-86.12 l -491.41,0 c 19.29,-127.67 109.86,-198.93 225.66,-198.93 75.72,0 135.11,26.72 185.58,68.29 13.36,10.39 25.24,16.33 46.03,16.33 40.08,0 71.26,-31.18 71.26,-72.75 0,-22.27 -10.39,-41.57 -23.76,-54.93 -71.26,-63.84 -160.34,-103.93 -282.08,-103.93"
         style="fill:#050301;fill-opacity:1;fill-rule:nonzero;stroke:none"
         id="path44"
         inkscape:connector-curvature="0" /><path
         d="m 6949.27,2253.74 c 0,48.99 40.09,89.08 87.61,89.08 l 279.11,0 c 47.52,0 87.61,-40.09 87.61,-89.08 0,-47.51 -40.09,-87.59 -87.61,-87.59 l -279.11,0 c -47.52,0 -87.61,40.08 -87.61,87.59"
         style="fill:#050301;fill-opacity:1;fill-rule:nonzero;stroke:none"
         id="path46"
         inkscape:connector-curvature="0" /><path
         d="m 8540.8,1961.27 c 124.72,0 200.43,48.99 200.43,142.53 l 0,2.97 c 0,87.58 -69.77,139.55 -213.75,139.55 l -289.52,0 0,-285.05 302.84,0 z m -53.41,439.45 c 117.29,0 195.97,46.03 195.97,141.05 l 0,2.96 c 0,81.66 -65.36,132.13 -182.65,132.13 l -262.75,0 0,-276.14 249.43,0 z m -429.1,345.92 c 0,51.97 40.08,92.06 92.06,92.06 l 374.15,0 c 118.77,0 212.27,-32.66 271.68,-92.06 46.03,-46.02 69.76,-102.44 69.76,-172.21 l 0,-2.97 c 0,-124.71 -71.24,-191.53 -148.44,-231.61 121.74,-41.56 206.38,-111.34 206.38,-252.39 l 0,-2.97 c 0,-185.58 -152.92,-285.05 -384.57,-285.05 l -388.96,0 c -51.98,0 -92.06,40.09 -92.06,92.05 l 0,855.15"
         style="fill:#050301;fill-opacity:1;fill-rule:nonzero;stroke:none"
         id="path48"
         inkscape:connector-curvature="0" /><path
         d="m 9109.43,2501.68 c 0,50.47 38.6,90.56 89.09,90.56 50.5,0 90.59,-40.09 90.59,-90.56 l 0,-80.17 c 41.57,97.98 118.77,172.22 197.45,172.22 56.37,0 89.03,-37.12 89.03,-89.08 0,-47.51 -31.17,-78.68 -71.25,-86.11 -127.7,-22.27 -215.23,-120.25 -215.23,-305.84 l 0,-231.6 c 0,-49 -40.09,-89.08 -90.59,-89.08 -49,0 -89.09,38.6 -89.09,89.08 l 0,620.58"
         style="fill:#050301;fill-opacity:1;fill-rule:nonzero;stroke:none"
         id="path50"
         inkscape:connector-curvature="0" /><path
         d="m 10418.9,1881.1 c 0,-49 -40.1,-89.08 -90.5,-89.08 -49.1,0 -90.6,38.6 -90.6,89.08 l 0,40.08 c -50.5,-74.23 -123.3,-138.07 -245,-138.07 -176.7,0 -279.11,118.77 -279.11,301.38 l 0,417.19 c 0,50.47 40.08,90.56 89.09,90.56 50.43,0 90.52,-40.09 90.52,-90.56 l 0,-363.74 c 0,-121.74 60.9,-190.04 167.8,-190.04 103.9,0 176.7,71.27 176.7,193.01 l 0,360.77 c 0,50.47 40.1,90.56 90.6,90.56 48.9,0 90.5,-40.09 90.5,-90.56 l 0,-620.58"
         style="fill:#050301;fill-opacity:1;fill-rule:nonzero;stroke:none"
         id="path52"
         inkscape:connector-curvature="0" /><path
         d="m 10626.7,1930.09 222.8,267.23 -206.4,244.97 c -19.3,23.76 -29.7,44.54 -29.7,68.3 0,50.47 38.6,83.14 83.2,83.14 35.6,0 60.8,-16.34 83,-44.54 l 176.7,-231.61 179.7,230.13 c 20.8,26.72 46,46.02 77.2,46.02 47.5,0 84.6,-34.15 84.6,-78.69 0,-25.24 -10.4,-43.06 -25.2,-60.87 l -212.4,-253.88 219.8,-259.81 c 19.3,-23.75 29.7,-44.54 29.7,-68.29 0,-50.48 -38.6,-83.14 -83.2,-83.14 -35.6,0 -60.8,16.33 -83.1,46.02 l -190,244.97 -190.1,-244.97 c -20.8,-25.23 -46,-46.02 -78.6,-46.02 -46.1,0 -83.2,34.14 -83.2,78.68 0,25.24 8.9,44.54 25.2,62.36"
         style="fill:#050301;fill-opacity:1;fill-rule:nonzero;stroke:none"
         id="path54"
         inkscape:connector-curvature="0" /><path
         d="m 12000,2246.32 c -11.8,115.8 -80.1,206.36 -198.9,206.36 -109.8,0 -187,-84.62 -203.4,-206.36 l 402.3,0 z m -178.1,-464.7 c -227.2,0 -402.3,164.8 -402.3,406.8 l 0,2.96 c 0,224.19 158.8,408.29 383,408.29 249.4,0 372.7,-204.88 372.7,-386.01 0,-50.48 -38.6,-86.12 -84.7,-86.12 l -491.4,0 c 19.3,-127.67 109.8,-198.93 225.7,-198.93 75.7,0 135.1,26.72 185.6,68.29 13.3,10.39 25.2,16.33 46,16.33 40.1,0 71.2,-31.18 71.2,-72.75 0,-22.27 -10.4,-41.57 -23.7,-54.93 -71.3,-63.84 -160.3,-103.93 -282.1,-103.93"
         style="fill:#050301;fill-opacity:1;fill-rule:nonzero;stroke:none"
         id="path56"
         inkscape:connector-curvature="0" /><path
         d="m 12369.7,2801.57 c 0,49 38.6,89.09 89.1,89.09 50.5,0 90.5,-40.09 90.5,-89.09 l 0,-920.47 c 0,-50.48 -40,-89.08 -90.5,-89.08 -49,0 -89.1,38.6 -89.1,89.08 l 0,920.47"
         style="fill:#050301;fill-opacity:1;fill-rule:nonzero;stroke:none"
         id="path58"
         inkscape:connector-curvature="0" /><path
         d="m 12794.3,2801.57 c 0,49 38.6,89.09 89.1,89.09 50.5,0 90.6,-40.09 90.6,-89.09 l 0,-920.47 c 0,-50.48 -40.1,-89.08 -90.6,-89.08 -49,0 -89.1,38.6 -89.1,89.08 l 0,920.47"
         style="fill:#050301;fill-opacity:1;fill-rule:nonzero;stroke:none"
         id="path60"
         inkscape:connector-curvature="0" /><path
         d="m 13746,2246.32 c -11.9,115.8 -80.1,206.36 -199,206.36 -109.8,0 -187,-84.62 -203.4,-206.36 l 402.4,0 z m -178.2,-464.7 c -227.1,0 -402.3,164.8 -402.3,406.8 l 0,2.96 c 0,224.19 158.9,408.29 383,408.29 249.4,0 372.7,-204.88 372.7,-386.01 0,-50.48 -38.6,-86.12 -84.7,-86.12 l -491.3,0 c 19.2,-127.67 109.8,-198.93 225.6,-198.93 75.7,0 135.1,26.72 185.6,68.29 13.4,10.39 25.3,16.33 46,16.33 40.1,0 71.3,-31.18 71.3,-72.75 0,-22.27 -10.4,-41.57 -23.8,-54.93 -71.2,-63.84 -160.3,-103.93 -282.1,-103.93"
         style="fill:#050301;fill-opacity:1;fill-rule:nonzero;stroke:none"
         id="path62"
         inkscape:connector-curvature="0" /><path
         d="m 14075.6,1878.12 c -19.3,10.4 -34.2,32.67 -34.2,62.36 0,40.09 31.2,72.75 72.8,72.75 14.8,0 28.2,-4.46 38.6,-10.4 75.7,-50.47 154.4,-75.71 225.7,-75.71 77.2,0 121.7,32.66 121.7,84.62 l 0,2.97 c 0,60.87 -83.1,81.66 -175.2,109.87 -115.8,32.66 -245,80.17 -245,230.12 l 0,2.97 c 0,148.46 123.3,239.03 279.1,239.03 83.2,0 170.8,-23.76 246.5,-63.84 25.2,-13.37 43.1,-37.12 43.1,-68.3 0,-41.56 -32.7,-72.75 -74.3,-72.75 -14.8,0 -23.8,2.98 -35.6,8.91 -63.9,32.66 -129.2,53.45 -184.1,53.45 -69.8,0 -109.9,-32.66 -109.9,-77.2 l 0,-2.96 c 0,-57.92 84.7,-81.67 176.7,-111.36 114.3,-35.63 243.5,-87.59 243.5,-228.63 l 0,-2.97 c 0,-164.8 -127.7,-246.46 -291,-246.46 -99.5,0 -207.8,31.19 -298.4,93.53"
         style="fill:#050301;fill-opacity:1;fill-rule:nonzero;stroke:none"
         id="path64"
         inkscape:connector-curvature="0" /><path
         d="m 1807.57,973.949 c 0,50.501 40.09,90.581 92.05,90.581 50.48,0 90.57,-40.08 90.57,-90.581 l 0,-872.961 c 0,-50.4919 -40.09,-90.5778 -90.57,-90.5778 -51.96,0 -92.05,40.0859 -92.05,90.5778 l 0,872.961"
         style="fill:#050301;fill-opacity:1;fill-rule:nonzero;stroke:none"
         id="path66"
         inkscape:connector-curvature="0" /><path
         d="m 2247.01,720.051 c 0,50.496 38.61,90.582 89.08,90.582 50.48,0 90.56,-40.086 90.56,-90.582 l 0,-38.598 c 50.49,72.801 123.23,136.613 244.97,136.613 176.67,0 279.12,-118.769 279.12,-299.929 l 0,-418.6331 c 0,-50.4961 -38.61,-89.0937 -89.08,-89.0937 -50.48,0 -90.56,38.5976 -90.56,89.0937 l 0,363.7421 c 0,121.742 -60.88,191.504 -167.77,191.504 -103.93,0 -176.68,-72.734 -176.68,-194.477 l 0,-360.7691 c 0,-50.4961 -40.08,-89.0937 -90.56,-89.0937 -48.99,0 -89.08,38.5976 -89.08,89.0937 l 0,620.5471"
         style="fill:#050301;fill-opacity:1;fill-rule:nonzero;stroke:none"
         id="path68"
         inkscape:connector-curvature="0" /><path
         d="m 3204.61,234.629 0,412.687 -29.69,0 c -43.05,0 -77.2,34.137 -77.2,77.196 0,43.062 34.15,77.199 77.2,77.199 l 29.69,0 0,133.641 c 0,49.007 40.09,89.098 90.57,89.098 48.99,0 89.07,-40.091 89.07,-89.098 l 0,-133.641 141.04,0 c 43.06,0 78.69,-34.137 78.69,-77.199 0,-43.059 -35.63,-77.196 -78.69,-77.196 l -141.04,0 0,-384.496 c 0,-69.761 35.64,-98.015 96.51,-98.015 20.79,0 38.6,4.461 44.53,4.461 40.1,0 75.72,-32.653 75.72,-74.223 0,-32.6524 -22.27,-59.3555 -47.5,-69.7617 -38.61,-13.3829 -75.72,-20.82036 -123.23,-20.82036 -132.14,0 -225.67,57.92966 -225.67,230.16806"
         style="fill:#050301;fill-opacity:1;fill-rule:nonzero;stroke:none"
         id="path70"
         inkscape:connector-curvature="0" /><path
         d="m 4292.65,464.734 c -11.87,115.793 -80.17,206.375 -198.94,206.375 -109.86,0 -187.06,-84.632 -203.39,-206.375 l 402.33,0 z M 4114.5,0 c -227.16,0 -402.34,164.805 -402.34,406.805 l 0,2.972 c 0,224.219 158.86,408.289 383.04,408.289 249.42,0 372.65,-204.886 372.65,-385.984 0,-50.492 -38.61,-86.117 -84.63,-86.117 l -491.42,0 c 19.3,-127.692 109.86,-198.942 225.66,-198.942 75.72,0 135.11,26.704 185.59,68.274 13.36,10.41 25.24,16.359 46.02,16.359 40.09,0 71.26,-31.23 71.26,-72.801 0,-22.242 -10.39,-41.574 -23.74,-54.89 C 4325.32,40.0859 4236.23,0 4114.5,0"
         style="fill:#050301;fill-opacity:1;fill-rule:nonzero;stroke:none"
         id="path72"
         inkscape:connector-curvature="0" /><path
         d="m 4651.93,720.051 c 0,50.496 38.61,90.582 89.09,90.582 50.47,0 90.56,-40.086 90.56,-90.582 l 0,-80.168 c 41.57,98.015 118.77,172.238 197.46,172.238 56.41,0 89.08,-37.113 89.08,-89.094 0,-47.457 -31.19,-78.683 -71.27,-86.054 -127.68,-22.305 -215.27,-120.321 -215.27,-305.879 l 0,-231.5901 c 0,-49.0078 -40.09,-89.0937 -90.56,-89.0937 -49,0 -89.09,38.5976 -89.09,89.0937 l 0,620.5471"
         style="fill:#050301;fill-opacity:1;fill-rule:nonzero;stroke:none"
         id="path74"
         inkscape:connector-curvature="0" /><path
         d="m 5265.09,720.051 c 0,50.496 38.6,90.582 89.08,90.582 50.48,0 90.56,-40.086 90.56,-90.582 l 0,-38.598 c 50.48,72.801 123.23,136.613 244.97,136.613 176.68,0 279.12,-118.769 279.12,-299.929 l 0,-418.6331 c 0,-50.4961 -38.6,-89.0937 -89.08,-89.0937 -50.48,0 -90.56,38.5976 -90.56,89.0937 l 0,363.7421 c 0,121.742 -60.88,191.504 -167.77,191.504 -103.93,0 -176.68,-72.734 -176.68,-194.477 l 0,-360.7691 c 0,-50.4961 -40.08,-89.0937 -90.56,-89.0937 -48.99,0 -89.08,38.5976 -89.08,89.0937 l 0,620.5471"
         style="fill:#050301;fill-opacity:1;fill-rule:nonzero;stroke:none"
         id="path76"
         inkscape:connector-curvature="0" /><path
         d="m 6671.07,299.93 0,53.468 c -46.03,17.782 -106.94,31.165 -178.19,31.165 -115.78,0 -184.08,-49.008 -184.08,-130.665 l 0,-2.976 c 0,-75.707 66.81,-118.77 152.93,-118.77 118.76,0 209.34,68.274 209.34,167.778 z m -537.45,-56.442 0,2.973 c 0,169.266 132.13,252.41 323.65,252.41 87.59,0 149.92,-13.383 210.82,-32.652 l 0,19.269 c 0,111.399 -68.27,170.75 -194.48,170.75 -68.3,0 -124.72,-11.894 -173.72,-31.164 -10.39,-2.972 -19.29,-4.461 -28.2,-4.461 -41.58,0 -75.72,32.653 -75.72,74.223 0,32.652 22.27,60.906 48.99,71.25 74.24,28.254 149.95,46.035 252.38,46.035 117.29,0 204.89,-31.164 259.85,-87.609 57.86,-56.375 84.63,-139.524 84.63,-242 l 0,-385.9847 c 0,-49.0039 -38.6,-86.1171 -87.61,-86.1171 -51.98,0 -87.6,35.625 -87.6,75.7109 l 0,29.6759 C 6613.14,51.9805 6531.48,1.48828 6411.24,1.48828 c -146.97,0 -277.62,84.63282 -277.62,241.99972"
         style="fill:#050301;fill-opacity:1;fill-rule:nonzero;stroke:none"
         id="path78"
         inkscape:connector-curvature="0" /><path
         d="m 7086.54,234.629 0,412.687 -29.68,0 c -43.06,0 -77.2,34.137 -77.2,77.196 0,43.062 34.14,77.199 77.2,77.199 l 29.68,0 0,133.641 c 0,49.007 40.08,89.098 90.57,89.098 49.01,0 89.1,-40.091 89.1,-89.098 l 0,-133.641 141.01,0 c 43.06,0 78.75,-34.137 78.75,-77.199 0,-43.059 -35.69,-77.196 -78.75,-77.196 l -141.01,0 0,-384.496 c 0,-69.761 35.62,-98.015 96.53,-98.015 20.75,0 38.6,4.461 44.48,4.461 40.15,0 75.77,-32.653 75.77,-74.223 0,-32.6524 -22.3,-59.3555 -47.52,-69.7617 -38.59,-13.3829 -75.71,-20.82036 -123.23,-20.82036 -132.15,0 -225.7,57.92966 -225.7,230.16806"
         style="fill:#050301;fill-opacity:1;fill-rule:nonzero;stroke:none"
         id="path80"
         inkscape:connector-curvature="0" /><path
         d="m 7670.04,720.051 c 0,50.496 38.6,90.582 89.09,90.582 50.43,0 90.51,-40.086 90.51,-90.582 l 0,-620.5471 c 0,-50.4961 -40.08,-89.0937 -90.51,-89.0937 -49.01,0 -89.09,38.5976 -89.09,89.0937 l 0,620.5471 z m -13.39,292.499 c 0,53.47 44.55,87.6 102.48,87.6 57.87,0 102.41,-34.13 102.41,-87.6 l 0,-8.92 c 0,-53.407 -44.54,-89.032 -102.41,-89.032 -57.93,0 -102.48,35.625 -102.48,89.032 l 0,8.92"
         style="fill:#050301;fill-opacity:1;fill-rule:nonzero;stroke:none"
         id="path82"
         inkscape:connector-curvature="0" /><path
         d="m 8697.39,405.316 0,2.973 c 0,138.102 -99.44,252.41 -240.51,252.41 -143.99,0 -236.06,-112.82 -236.06,-249.433 l 0,-2.977 c 0,-136.547 99.51,-250.922 239.03,-250.922 145.54,0 237.54,112.887 237.54,247.949 z m -656.18,0 0,2.973 c 0,224.223 178.13,409.777 418.64,409.777 240.51,0 417.21,-182.582 417.21,-406.8 l 0,-2.977 C 8877.06,185.621 8698.88,0 8456.88,0 8217.85,0 8041.21,182.648 8041.21,405.316"
         style="fill:#050301;fill-opacity:1;fill-rule:nonzero;stroke:none"
         id="path84"
         inkscape:connector-curvature="0" /><path
         d="m 9059.65,720.051 c 0,50.496 38.6,90.582 89.09,90.582 50.49,0 90.58,-40.086 90.58,-90.582 l 0,-38.598 c 50.5,72.801 123.23,136.613 244.97,136.613 176.64,0 279.12,-118.769 279.12,-299.929 l 0,-418.6331 c 0,-50.4961 -38.6,-89.0937 -89.1,-89.0937 -50.49,0 -90.58,38.5976 -90.58,89.0937 l 0,363.7421 c 0,121.742 -60.84,191.504 -167.78,191.504 -103.9,0 -176.63,-72.734 -176.63,-194.477 l 0,-360.7691 c 0,-50.4961 -40.09,-89.0937 -90.58,-89.0937 -49.01,0 -89.09,38.5976 -89.09,89.0937 l 0,620.5471"
         style="fill:#050301;fill-opacity:1;fill-rule:nonzero;stroke:none"
         id="path86"
         inkscape:connector-curvature="0" /><path
         d="m 10465.6,299.93 0,53.468 c -46,17.782 -106.9,31.165 -178.1,31.165 -115.8,0 -184.1,-49.008 -184.1,-130.665 l 0,-2.976 c 0,-75.707 66.8,-118.77 152.9,-118.77 118.8,0 209.3,68.274 209.3,167.778 z m -537.39,-56.442 0,2.973 c 0,169.266 132.09,252.41 323.69,252.41 87.6,0 149.9,-13.383 210.7,-32.652 l 0,19.269 c 0,111.399 -68.2,170.75 -194.4,170.75 -68.3,0 -124.8,-11.894 -173.7,-31.164 -10.4,-2.972 -19.3,-4.461 -28.3,-4.461 -41.5,0 -75.66,32.653 -75.66,74.223 0,32.652 22.26,60.906 48.96,71.25 74.3,28.254 150,46.035 252.5,46.035 117.2,0 204.8,-31.164 259.7,-87.609 58,-56.375 84.7,-139.524 84.7,-242 l 0,-385.9847 c 0,-49.0039 -38.6,-86.1171 -87.6,-86.1171 -52,0 -87.6,35.625 -87.6,75.7109 l 0,29.6759 C 10407.7,51.9805 10326.1,1.48828 10205.8,1.48828 c -146.9,0 -277.59,84.63282 -277.59,241.99972"
         style="fill:#050301;fill-opacity:1;fill-rule:nonzero;stroke:none"
         id="path88"
         inkscape:connector-curvature="0" /><path
         d="m 10862,1019.98 c 0,49.01 38.6,89.09 89.1,89.09 50.5,0 90.6,-40.08 90.6,-89.09 l 0,-920.4761 c 0,-50.4961 -40.1,-89.0937 -90.6,-89.0937 -49,0 -89.1,38.5976 -89.1,89.0937 l 0,920.4761"
         style="fill:#050301;fill-opacity:1;fill-rule:nonzero;stroke:none"
         id="path90"
         inkscape:connector-curvature="0" /><path
         d="m 11363.9,230.168 c 59.3,0 103.9,-44.547 103.9,-102.477 l 0,-14.804 c 0,-57.93 -44.6,-102.4768 -103.9,-102.4768 -61,0 -105.4,44.5468 -105.4,102.4768 l 0,14.804 c 0,57.93 44.4,102.477 105.4,102.477"
         style="fill:#050301;fill-opacity:1;fill-rule:nonzero;stroke:none"
         id="path92"
         inkscape:connector-curvature="0" /><path
         d="m 12303.6,408.289 0,2.977 c 0,151.418 -102.4,250.922 -224.2,250.922 -121.7,0 -228.6,-100.989 -228.6,-250.922 l 0,-2.977 c 0,-149.93 106.9,-250.922 228.6,-250.922 123.3,0 224.2,96.531 224.2,250.922 z m -628,611.691 c 0,50.5 38.6,89.09 89.1,89.09 50.5,0 90.6,-38.59 90.6,-89.09 l 0,-348.871 c 57.9,81.657 139.5,146.957 267.2,146.957 184.1,0 363.7,-145.468 363.7,-406.8 l 0,-2.977 c 0,-259.777 -178.1,-406.80072 -363.7,-406.80072 -130.7,0 -212.3,65.36332 -267.2,138.10172 l 0,-40.0861 c 0,-49.0078 -40.1,-89.0937 -90.6,-89.0937 -49,0 -89.1,40.0859 -89.1,89.0937 l 0,920.4761"
         style="fill:#050301;fill-opacity:1;fill-rule:nonzero;stroke:none"
         id="path94"
         inkscape:connector-curvature="0" /><path
         d="m 13209.3,464.734 c -11.9,115.793 -80.2,206.375 -199,206.375 -109.8,0 -187.1,-84.632 -203.4,-206.375 l 402.4,0 z M 13031.1,0 c -227.1,0 -402.4,164.805 -402.4,406.805 l 0,2.972 c 0,224.219 158.9,408.289 383.1,408.289 249.5,0 372.6,-204.886 372.6,-385.984 0,-50.492 -38.6,-86.117 -84.5,-86.117 l -491.5,0 c 19.3,-127.692 109.9,-198.942 225.7,-198.942 75.7,0 135.1,26.704 185.6,68.274 13.3,10.41 25.2,16.359 45.9,16.359 40.1,0 71.4,-31.23 71.4,-72.801 0,-22.242 -10.4,-41.574 -23.8,-54.89 C 13241.9,40.0859 13152.8,0 13031.1,0"
         style="fill:#050301;fill-opacity:1;fill-rule:nonzero;stroke:none"
         id="path96"
         inkscape:connector-curvature="0" /></g></g></svg>